<?xml version="1.0" standalone="no"?>
<!DOCTYPE svg PUBLIC "-//W3C//DTD SVG 1.1//EN" "http://www.w3.org/Graphics/SVG/1.1/DTD/svg11.dtd" >
<svg xmlns="http://www.w3.org/2000/svg">
<metadata>
Created by FontPrep 20130207 at Tue Feb  4 13:44:25 2014
 By Miriam
Copyright (c) 1988, 1990, 1993, 2002 Adobe Systems Incorporated.  All Rights Reserved. (c) 1981, 2002 Heidelberger Druckmaschinen AG. All rights reserved.
</metadata>
<defs>
<font id="5971a26102354d59c0f922ff596bc172" horiz-adv-x='1024' >
  <font-face 
    font-family="HelveticaNeueLTStd-Bd"
    font-weight="700"
    font-stretch="normal"
    units-per-em="2048"
    panose-1="2 11 8 4 2 2 2 2 2 4"
    ascent="1462"
    descent="-586"
    x-height="1059"
    cap-height="1462"
    bbox="-340 -446.005 2208 1997"
    underline-thickness="102"
    underline-position="-102"
    unicode-range="U+0020-FB02"
  />
<missing-glyph horiz-adv-x="1024" 
d="M102 1239v-1044l349 522zM164 102h696l-348 523zM573 717l349 -522v1044zM512 809l348 522h-696zM0 0v1434h1024v-1434h-1024z" />
    <glyph glyph-name="fi" unicode="fi" horiz-adv-x="1251" 
d="M572 1243q-56 0 -82 -28t-25 -93v-63h201v-195h-201v-864h-291v864h-174v195h174v82q0 145 91 233t263 88l154 -8v-217q-54 6 -110 6zM842 0v1059h291v-1059h-291zM1133 1462v-239h-291v239h291z" />
    <glyph glyph-name="fl" unicode="fl" horiz-adv-x="1251" 
d="M572 1243q-56 0 -82 -28t-25 -93v-63h201v-195h-201v-864h-291v864h-174v195h174v82q0 145 91 233t263 88l154 -8v-217q-54 6 -110 6zM842 0v1462h291v-1462h-291z" />
    <glyph glyph-name=".notdef" horiz-adv-x="1024" 
d="M102 1239v-1044l349 522zM164 102h696l-348 523zM573 717l349 -522v1044zM512 809l348 522h-696zM0 0v1434h1024v-1434h-1024z" />
    <glyph glyph-name=".null" horiz-adv-x="0" 
 />
    <glyph glyph-name="nonmarkingreturn" horiz-adv-x="681" 
 />
    <glyph glyph-name="space" unicode=" " horiz-adv-x="569" 
 />
    <glyph glyph-name="exclam" unicode="!" horiz-adv-x="569" 
d="M125 0v315h321v-315h-321zM436 1462v-393l-80 -631h-145l-78 631v393h303z" />
    <glyph glyph-name="quotedbl" unicode="&#x22;" horiz-adv-x="948" 
d="M174 805v657h219v-657h-219zM555 805v657h219v-657h-219z" />
    <glyph glyph-name="numbersign" unicode="#" 
d="M694 844h-196l-37 -254h198zM68 406v184h194l37 254h-170v184h195l57 406h199l-58 -406h199l55 406h199l-55 -406h151v-184h-178l-35 -254h152v-184h-179l-55 -406h-198l55 406h-197l-57 -406h-199l58 406h-170z" />
    <glyph glyph-name="dollar" unicode="$" 
d="M508 1655h121v-158q197 -23 323 -129t138 -307h-291q-2 82 -51 139t-119 57v-362q87 -23 153 -41t147 -66q81 -49 121 -94t62 -107q22 -63 26 -101q3 -38 3 -85q0 -167 -155 -308q-54 -48 -147 -84t-210 -44v-174h-121v174q-465 35 -510 510h291q-2 -109 59 -181t160 -89
v428q-16 8 -66 18q-172 47 -279 121q-130 90 -130 288t138 312t337 125v158zM850 400q0 86 -47 124t-174 74v-393q89 8 155 59q66 50 66 136zM508 1257q-74 0 -129 -45t-55 -119t42 -110t142 -59v333z" />
    <glyph glyph-name="percent" unicode="%" horiz-adv-x="2048" 
d="M520 -45l848 1524h174l-844 -1524h-178zM1419 373q0 -134 29 -188q12 -24 39 -42t63 -18q135 0 136 246q0 246 -127 245q-140 1 -140 -243zM1210 371q0 179 88 289t261 110q336 0 335 -403q0 -176 -87 -286t-262 -110t-255 110t-80 290zM362 1053q0 -127 29 -180
q29 -54 103 -56q135 0 135 246t-127 246q-140 0 -140 -256zM154 1057q0 178 88 292q88 113 263 113t254 -114t79 -294q0 -182 -87 -286t-259 -104q-338 0 -338 393z" />
    <glyph glyph-name="ampersand" unicode="&#x26;" horiz-adv-x="1402" 
d="M553 -29q-219 0 -353 118t-134 321q0 143 92 249t235 175q-71 86 -105 156t-34 155q0 147 115 240t277 93t277 -90q114 -91 113 -260q0 -227 -260 -364l189 -232q39 74 53 175h252q-23 -213 -142 -361l297 -346h-356l-119 145q-178 -174 -397 -174zM342 403
q0 -80 62 -136t147 -56q131 0 246 129l-250 305q-205 -90 -205 -242zM782 1148q0 54 -40 95t-93 41t-92 -37t-39 -92q0 -84 92 -191q18 -22 23 -28q51 33 78 55q71 60 71 157z" />
    <glyph glyph-name="quotesingle" unicode="'" horiz-adv-x="569" 
d="M176 805v657h219v-657h-219z" />
    <glyph glyph-name="parenleft" unicode="(" horiz-adv-x="606" 
d="M377 1497h244q-223 -426 -223 -933t220 -937h-241q-270 449 -271 922q0 242 71 502t200 446z" />
    <glyph glyph-name="parenright" unicode=")" horiz-adv-x="606" 
d="M209 556q0 507 -221 941h241q270 -453 271 -924q0 -242 -71 -501t-200 -445h-243q223 422 223 929z" />
    <glyph glyph-name="asterisk" unicode="*" horiz-adv-x="833" 
d="M496 1462v-256l237 90l55 -157l-241 -80l151 -201l-135 -100l-151 211l-144 -211l-137 100l152 201l-238 80l55 157l232 -90v256h164z" />
    <glyph glyph-name="plus" unicode="+" horiz-adv-x="1228" 
d="M725 1034v-407h408v-219h-408v-408h-219v408h-408v219h408v407h219z" />
    <glyph glyph-name="comma" unicode="," horiz-adv-x="569" 
d="M125 0v315h321v-315q0 -137 -91 -228t-228 -112v147q63 9 106 67t39 126h-147z" />
    <glyph glyph-name="hyphen" unicode="-" horiz-adv-x="833" 
d="M109 434v250h616v-250h-616z" />
    <glyph glyph-name="period" unicode="." horiz-adv-x="569" 
d="M123 0v315h321v-315h-321z" />
    <glyph glyph-name="slash" unicode="/" horiz-adv-x="759" 
d="M-23 -35l572 1532h233l-571 -1532h-234z" />
    <glyph glyph-name="zero" unicode="0" 
d="M334 710q0 -60 1 -105q1 -46 13 -130t35 -134t71 -90t114 -40t115 40q48 40 71 90q51 111 51 335q1 224 -13 285t-31 110q-31 90 -106 130q-39 22 -88 22q-136 0 -189 -152q-32 -91 -37 -167t-6 -105t-1 -89zM568 -29q-237 1 -381 177t-144 571t144 569t376 174t382 -166
q151 -166 151 -570t-146 -580t-382 -175z" />
    <glyph glyph-name="one" unicode="1" 
d="M803 1434v-1434h-291v930h-360v219q168 -5 282 63t137 222h232z" />
    <glyph glyph-name="two" unicode="2" 
d="M354 883h-278q-8 255 130 417t390 162q205 0 348 -123t143 -325q0 -147 -66 -247q-67 -99 -190 -187q-35 -25 -107 -72t-116 -77q-114 -76 -190 -181h678v-250h-1053q0 262 189 440q102 93 187 150t140 93q154 101 184 151q52 87 53 172q0 86 -60 146t-166 60t-162 -98
q-54 -98 -54 -231z" />
    <glyph glyph-name="three" unicode="3" 
d="M772 1032q0 88 -59 139t-155 51t-154 -70q-58 -71 -56 -185h-276q8 221 142 358t336 137t351 -108q147 -109 148 -289q-1 -106 -53 -186t-148 -107v-4q118 -27 186 -116t68 -210q0 -217 -156 -344t-390 -127q-234 -1 -378 139q-145 140 -141 384h276q3 -125 67 -204
t174 -79t178 62q67 62 67 167t-57 148q-30 23 -66 42t-209 19v205q110 -8 178 16q127 46 127 162z" />
    <glyph glyph-name="four" unicode="4" 
d="M639 571v498h-6l-371 -498h377zM639 0v332h-606v266l622 836h260v-863h191v-239h-191v-332h-276z" />
    <glyph glyph-name="five" unicode="5" 
d="M1024 1434v-240h-592l-57 -326l4 -4q109 111 280 111q205 0 324 -139q119 -140 119 -354t-157 -364t-377 -149q-220 2 -374 122t-157 335h291q10 -96 75 -156q67 -59 169 -59t170 82q68 81 69 195q0 114 -67 191t-181 77q-76 0 -125 -27t-94 -88h-262l141 793h801z" />
    <glyph glyph-name="six" unicode="6" 
d="M584 743q-108 -1 -169 -77t-61 -186t64 -189q64 -80 164 -80q102 0 162 79q60 78 60 186t-55 188q-57 79 -165 79zM602 1243q-74 0 -129 -44q-128 -103 -145 -392l4 -4q113 160 323 160q93 0 181 -40t149 -108q111 -129 111 -335t-140 -358q-140 -151 -362 -151
q-156 -1 -268 63t-171 174q-112 212 -112 499t128 511q65 112 177 178t258 66q188 0 315 -105q125 -106 150 -292h-276q-15 76 -67 127t-126 51z" />
    <glyph glyph-name="seven" unicode="7" 
d="M1059 1434v-250q-213 -186 -339 -530t-130 -654h-311q25 315 149 615q125 300 332 548h-680v271h979z" />
    <glyph glyph-name="eight" unicode="8" 
d="M786 1038q0 82 -48 144t-154 61q-106 1 -168 -53q-64 -54 -64 -145t64 -140t155 -49q92 0 154 50q61 50 61 132zM88 1071q0 183 146 287t337 104q127 0 225 -40q164 -67 229 -225q26 -62 26 -120q-1 -109 -55 -189t-154 -112v-4q128 -29 198 -122t70 -228
q0 -213 -160 -332t-381 -119t-381 115t-159 334q0 135 71 228q72 93 199 124v4q-103 30 -157 108t-54 187zM570 662q-108 0 -180 -61t-71 -169q0 -108 74 -174q74 -68 180 -68t177 68q70 68 70 171t-71 168t-179 65z" />
    <glyph glyph-name="nine" unicode="9" 
d="M784 953q0 109 -63 189t-165 81q-102 0 -162 -79q-60 -78 -60 -186t56 -188t166 -80q108 0 168 77t60 186zM483 471q-92 0 -180 40t-149 107q-111 129 -111 336t140 358t362 150q157 0 269 -63t170 -173q112 -212 112 -499t-128 -511q-66 -112 -178 -178t-258 -67
q-188 0 -314 106q-125 106 -150 292h276q14 -76 66 -127q52 -52 127 -52q74 0 129 44q128 103 145 393l-4 4q-113 -160 -324 -160z" />
    <glyph glyph-name="colon" unicode=":" horiz-adv-x="569" 
d="M446 1040v-315h-321v315h321zM125 0v315h321v-315h-321z" />
    <glyph glyph-name="semicolon" unicode=";" horiz-adv-x="569" 
d="M446 1040v-315h-321v315h321zM125 0v315h321v-315q-2 -137 -92 -228t-227 -112v147q63 9 106 67t39 126h-147z" />
    <glyph glyph-name="less" unicode="&#x3c;" horiz-adv-x="1228" 
d="M1135 1053v-236l-752 -299l752 -299v-235l-1041 413v242z" />
    <glyph glyph-name="equal" unicode="=" horiz-adv-x="1228" 
d="M1133 408v-220h-1035v220h1035zM1133 846v-219h-1035v219h1035z" />
    <glyph glyph-name="greater" unicode="&#x3e;" horiz-adv-x="1228" 
d="M94 -16v235l752 299l-752 299v236l1041 -414v-242z" />
    <glyph glyph-name="question" unicode="?" 
d="M395 0v315h322v-315h-322zM563 1497q137 0 241 -39t160 -100q111 -122 110 -255q-1 -134 -48 -212t-144 -148q-98 -71 -116 -94q-18 -22 -36 -47t-30 -86v-78h-276v92q8 121 54 192q46 72 132 138t109 103q33 47 33 110q0 184 -174 184q-104 0 -157 -74q-52 -75 -54 -192
h-301q4 223 140 365t357 141z" />
    <glyph glyph-name="at" unicode="@" horiz-adv-x="1638" 
d="M1163 453q92 -1 167 109t75 267q0 238 -157 371q-158 133 -408 133t-410 -171t-160 -436t169 -431t438 -166t438 168h172q-104 -158 -268 -245t-357 -87q-330 0 -559 220t-229 544t228 546t534 222t518 -175q211 -175 211 -450q0 -121 -38 -223q-67 -180 -218 -282
q-127 -88 -226 -88q-63 1 -104 33t-45 83h-4q-72 -119 -212 -119t-236 104t-95 247q0 205 126 363t321 159q74 0 140 -35t99 -108l33 110h168l-129 -528q-41 -135 18 -135zM596 666q0 -96 44 -145q44 -50 116 -50q104 0 178 98t74 211q0 74 -46 124t-112 50q-104 0 -179 -96
t-75 -192z" />
    <glyph glyph-name="A" unicode="A" horiz-adv-x="1402" 
d="M700 1102l-190 -537h379l-184 537h-5zM-14 0l555 1462h329l547 -1462h-334l-110 326h-547l-115 -326h-325z" />
    <glyph glyph-name="B" unicode="B" horiz-adv-x="1441" 
d="M463 1212v-342h325q90 0 144 43q53 43 53 131q0 168 -221 168h-301zM141 0v1462h688q467 0 467 -362q0 -209 -198 -305q132 -37 200 -135t68 -236q0 -208 -150 -316t-366 -108h-709zM463 651v-401h344q238 0 237 192q0 209 -231 209h-350z" />
    <glyph glyph-name="C" unicode="C" horiz-adv-x="1517" 
d="M789 1227q-129 0 -221 -74q-168 -135 -169 -428q1 -205 99 -347t299 -142q143 0 228 89t103 238h312q-25 -272 -200 -435t-443 -163q-330 0 -525 216q-194 216 -194 548t193 550q194 218 526 218q249 0 425 -140t205 -386h-311q-14 109 -106 183t-221 73z" />
    <glyph glyph-name="D" unicode="D" horiz-adv-x="1517" 
d="M463 1192v-922h287q156 0 260 106t104 338q0 230 -96 354t-326 124h-229zM141 0v1462h631q297 0 480 -185q184 -185 184 -527t-170 -546t-494 -204h-631z" />
    <glyph glyph-name="E" unicode="E" horiz-adv-x="1327" 
d="M141 0v1462h1094v-270h-772v-313h708v-250h-708v-359h788v-270h-1110z" />
    <glyph glyph-name="F" unicode="F" horiz-adv-x="1214" 
d="M141 0v1462h1028v-270h-706v-338h612v-250h-612v-604h-322z" />
    <glyph glyph-name="G" unicode="G" horiz-adv-x="1554" 
d="M797 -35q-330 0 -525 216q-194 216 -194 548t193 550q194 218 526 218q235 0 413 -138t203 -378h-307q-27 119 -110 182q-84 63 -210 63t-218 -73q-168 -135 -169 -428q1 -205 99 -347t299 -142q157 0 245 80t103 235h-324v240h615v-791h-205l-33 166
q-156 -201 -401 -201z" />
    <glyph glyph-name="H" unicode="H" horiz-adv-x="1517" 
d="M141 0v1462h322v-561h592v561h321v-1462h-321v631h-592v-631h-322z" />
    <glyph glyph-name="I" unicode="I" horiz-adv-x="604" 
d="M141 0v1462h322v-1462h-322z" />
    <glyph glyph-name="J" unicode="J" 
d="M997 1462v-1001q0 -496 -487 -496q-201 0 -341 114t-140 339v127h290v-66q0 -119 40 -181t140 -62t136 47t40 127q1 23 1 65v987h321z" />
    <glyph glyph-name="K" unicode="K" horiz-adv-x="1478" 
d="M141 0v1462h322v-606l571 606h402l-572 -577l627 -885h-404l-440 657l-184 -186v-471h-322z" />
    <glyph glyph-name="L" unicode="L" horiz-adv-x="1214" 
d="M141 0v1462h322v-1192h713v-270h-1035z" />
    <glyph glyph-name="M" unicode="M" horiz-adv-x="1857" 
d="M141 0v1462h453l342 -1005h4l324 1005h452v-1462h-301v1036h-4l-358 -1036h-248l-359 1026h-4v-1026h-301z" />
    <glyph glyph-name="N" unicode="N" horiz-adv-x="1517" 
d="M141 0v1462h320l610 -981h4v981h301v-1462h-321l-609 979h-4v-979h-301z" />
    <glyph glyph-name="O" unicode="O" horiz-adv-x="1593" 
d="M399 725q1 -205 99 -347t299 -142t299 142t98 347q0 295 -168 428q-92 74 -229 74t-229 -74q-168 -135 -169 -428zM78 729q0 332 193 550q194 218 526 218q331 0 525 -218t194 -550t-195 -548t-525 -216t-524 216t-194 548z" />
    <glyph glyph-name="P" unicode="P" horiz-adv-x="1366" 
d="M463 1212v-438h250q131 0 207 46t75 173q0 127 -75 173q-76 46 -207 46h-250zM141 0v1462h660q174 0 292 -70q117 -70 165 -170t48 -228q1 -271 -213 -400q-118 -70 -292 -70h-338v-524h-322z" />
    <glyph glyph-name="Q" unicode="Q" horiz-adv-x="1593" 
d="M1194 725q0 295 -168 428q-92 74 -229 74t-229 -74q-168 -135 -169 -428q1 -205 99 -347t299 -142q106 0 129 20l-138 125l150 160l166 -152q90 125 90 336zM797 -35q-330 0 -525 216q-194 216 -194 548t193 550q194 218 526 218q331 0 525 -218t194 -548t-191 -545
l182 -166l-149 -157l-207 188q-150 -86 -354 -86z" />
    <glyph glyph-name="R" unicode="R" horiz-adv-x="1478" 
d="M463 1212v-411h352q221 0 221 209q0 203 -221 202h-352zM141 0v1462h789q192 0 310 -116t118 -287q0 -272 -232 -367v-4q193 -49 213 -342q0 -91 15 -198t47 -148h-322q-27 70 -36 192t-15 158q-16 119 -70 170t-174 51h-321v-571h-322z" />
    <glyph glyph-name="S" unicode="S" horiz-adv-x="1329" 
d="M360 485q0 -137 92 -203t232 -67q68 0 126 13q58 12 108 56t51 113q0 69 -50 109q-50 41 -110 59q-120 36 -233 63q-211 50 -344 140q-134 90 -134 287q0 141 83 245q157 197 464 197q162 0 289 -45t212 -155t85 -271h-311q-12 221 -289 221q-88 0 -155 -41
q-66 -41 -66 -123q0 -83 70 -115t315 -94q246 -62 340 -135q145 -113 145 -313t-160 -331q-160 -130 -436 -130t-457 133q-180 133 -178 387h311z" />
    <glyph glyph-name="T" unicode="T" horiz-adv-x="1251" 
d="M465 0v1192h-438v270h1198v-270h-439v-1192h-321z" />
    <glyph glyph-name="U" unicode="U" horiz-adv-x="1517" 
d="M1382 1462v-909q0 -291 -162 -439t-463 -148q-300 0 -461 146q-161 148 -161 441v909h322v-909q0 -145 62 -231q63 -86 235 -86t240 74t67 243v909h321z" />
    <glyph glyph-name="V" unicode="V" horiz-adv-x="1290" 
d="M1307 1462l-486 -1462h-362l-475 1462h331l326 -1028h4l330 1028h332z" />
    <glyph glyph-name="W" unicode="W" horiz-adv-x="1933" 
d="M1927 1462l-393 -1462h-320l-247 995h-4l-244 -995h-326l-387 1462h322l231 -995h4l254 995h301l250 -1007h4l240 1007h315z" />
    <glyph glyph-name="X" unicode="X" horiz-adv-x="1366" 
d="M-12 0l512 766l-471 696h372l287 -467l297 467h352l-469 -698l510 -764h-383l-319 506l-326 -506h-362z" />
    <glyph glyph-name="Y" unicode="Y" horiz-adv-x="1366" 
d="M520 0v569l-538 893h362l342 -577l340 577h358l-542 -901v-561h-322z" />
    <glyph glyph-name="Z" unicode="Z" horiz-adv-x="1327" 
d="M47 0v254l784 938h-722v270h1151v-254l-785 -938h805v-270h-1233z" />
    <glyph glyph-name="bracketleft" unicode="[" horiz-adv-x="681" 
d="M139 -373v1870h541v-229h-250v-1411h250v-230h-541z" />
    <glyph glyph-name="backslash" unicode="\" horiz-adv-x="759" 
d="M211 1497l571 -1532h-233l-572 1532h234z" />
    <glyph glyph-name="bracketright" unicode="]" horiz-adv-x="681" 
d="M543 1497v-1870h-541v230h250v1411h-250v229h541z" />
    <glyph glyph-name="asciicircum" unicode="^" horiz-adv-x="1228" 
d="M125 645l352 789h275l352 -789h-240l-250 563l-249 -563h-240z" />
    <glyph glyph-name="underscore" unicode="_" horiz-adv-x="1024" 
d="M0 -256v102h1024v-102h-1024z" />
    <glyph glyph-name="grave" unicode="`" horiz-adv-x="530" 
d="M217 1190l-315 291h321l197 -291h-203z" />
    <glyph glyph-name="a" unicode="a" horiz-adv-x="1175" 
d="M1061 786v-550q0 -176 37 -236h-295q-18 57 -21 102q-125 -131 -356 -131q-160 0 -260 81t-100 245t114 234q97 60 246 79q29 4 74 10q151 19 197 35q73 27 73 104t-49 105t-139 29q-179 0 -193 -160h-291q12 187 152 271t346 83q465 0 465 -301zM770 410v108
q-30 -26 -80 -36q-49 -9 -94 -15q-46 -6 -98 -16t-97 -44t-45 -106q0 -135 179 -135q235 0 235 244z" />
    <glyph glyph-name="b" unicode="b" horiz-adv-x="1251" 
d="M887 529q-1 143 -63 241t-185 98t-185 -97t-62 -241t62 -242q64 -98 185 -98t185 98t63 241zM111 0v1462h290v-532h5q104 158 333 157q175 0 307 -143q132 -142 132 -414t-131 -415t-308 -144q-258 0 -348 164h-4v-135h-276z" />
    <glyph glyph-name="c" unicode="c" horiz-adv-x="1175" 
d="M616 868q-127 0 -187 -103t-60 -239t58 -235q57 -101 169 -101q213 -1 246 216h280q-27 -209 -163 -322q-137 -113 -361 -113t-372 152q-148 153 -148 399t144 406t396 159q202 0 344 -104t154 -297h-285q-29 182 -215 182z" />
    <glyph glyph-name="d" unicode="d" horiz-adv-x="1251" 
d="M862 530q0 148 -59 242q-59 96 -191 96t-194 -96t-62 -238t65 -243t195 -101t188 96t58 244zM866 0v135h-4q-96 -164 -322 -164t-351 166q-123 167 -123 399t123 392q124 160 346 159q96 -1 181 -41t132 -116h4v532h291v-1462h-277z" />
    <glyph glyph-name="e" unicode="e" horiz-adv-x="1175" 
d="M582 868q-112 0 -170 -72t-62 -153h473q-20 115 -74 170t-167 55zM1114 459h-764q12 -268 260 -269q84 0 150 42t80 96h256q-117 -356 -496 -357q-248 0 -394 155q-146 156 -146 400t150 403q152 159 400 159t384 -185q136 -184 120 -444z" />
    <glyph glyph-name="f" unicode="f" horiz-adv-x="681" 
d="M572 1243q-56 0 -82 -28t-25 -93v-63h201v-195h-201v-864h-291v864h-174v195h174v82q0 145 91 233t263 88l154 -8v-217q-54 6 -110 6z" />
    <glyph glyph-name="g" unicode="g" horiz-adv-x="1251" 
d="M602 250q122 0 186 85t64 218t-58 224t-182 91t-184 -86q-59 -86 -59 -216t56 -223t177 -93zM1128 1059v-991q0 -60 -9 -116t-44 -124t-91 -116t-160 -81t-264 -33q-158 0 -298 87q-139 86 -149 254h288q35 -145 217 -146q117 0 177 72q59 72 57 190v140h-4
q-45 -80 -131 -122t-187 -42q-225 -1 -339 149q-113 150 -113 376t121 379t337 153t312 -170h4v141h276z" />
    <glyph glyph-name="h" unicode="h" horiz-adv-x="1214" 
d="M111 0v1462h290v-551h7q53 86 138 131t171 45q219 -1 303 -111t84 -325v-651h-291v598q0 132 -43 196q-42 64 -152 64t-163 -72t-54 -231v-555h-290z" />
    <glyph glyph-name="i" unicode="i" horiz-adv-x="528" 
d="M410 1462v-239h-291v239h291zM119 0v1059h291v-1059h-291z" />
    <glyph glyph-name="j" unicode="j" horiz-adv-x="569" 
d="M428 1462v-239h-291v239h291zM25 -133q113 0 112 94v1098h291v-1112q0 -170 -80 -245t-293 -75q-33 0 -94 8v240q25 -8 64 -8z" />
    <glyph glyph-name="k" unicode="k" horiz-adv-x="1175" 
d="M137 0v1462h291v-784l367 381h344l-400 -389l445 -670h-353l-290 473l-113 -108v-365h-291z" />
    <glyph glyph-name="l" unicode="l" horiz-adv-x="528" 
d="M119 0v1462h291v-1462h-291z" />
    <glyph glyph-name="m" unicode="m" horiz-adv-x="1855" 
d="M119 0v1059h274v-144h4q121 172 337 172t296 -176q51 76 133 126t187 50q180 0 283 -91t104 -287v-709h-291v600q0 164 -44 211t-134 47q-195 0 -195 -268v-590h-291v608q0 156 -42 203t-116 47q-73 0 -144 -49q-72 -49 -70 -195v-614h-291z" />
    <glyph glyph-name="n" unicode="n" horiz-adv-x="1214" 
d="M111 0v1059h276v-148h6q53 86 141 131t183 45q219 -1 303 -111t84 -325v-651h-291v598q0 132 -43 196q-42 64 -152 64t-163 -72t-54 -231v-555h-290z" />
    <glyph glyph-name="o" unicode="o" horiz-adv-x="1251" 
d="M369 528q0 -145 60 -241q61 -97 197 -97t196 96t61 242q-1 144 -61 242t-196 98t-197 -97q-60 -98 -60 -243zM1174 529q0 -253 -150 -405t-398 -153q-248 1 -398 153t-150 405t149 406q150 153 399 153q248 0 398 -154q150 -152 150 -405z" />
    <glyph glyph-name="p" unicode="p" horiz-adv-x="1251" 
d="M646 190q132 0 192 96t59 239q0 143 -62 243q-61 100 -193 100t-191 -98t-59 -242t60 -242q62 -96 194 -96zM111 -373v1432h276v-135h4q100 164 326 164q227 0 349 -164q122 -162 122 -398t-122 -395q-122 -160 -343 -160q-96 0 -181 41t-136 119h-5v-504h-290z" />
    <glyph glyph-name="q" unicode="q" horiz-adv-x="1251" 
d="M356 527q0 -144 60 -240q60 -97 191 -97t193 94t62 238q0 142 -60 244t-190 102t-192 -98q-64 -98 -64 -243zM1143 1059v-1432h-291v506h-4q-47 -82 -139 -122q-93 -40 -183 -40q-174 0 -308 121q-69 61 -110 173q-42 112 -42 257q0 236 123 401q125 165 353 165
t320 -164h4v135h277z" />
    <glyph glyph-name="r" unicode="r" horiz-adv-x="796" 
d="M111 0v1059h276v-197h4q39 98 135 162t203 63q33 0 64 -10v-270q-45 10 -105 10q-150 0 -218 -93t-69 -247v-477h-290z" />
    <glyph glyph-name="s" unicode="s" horiz-adv-x="1099" 
d="M550 166q86 0 142 33q58 33 58 100t-88 101q-61 24 -189 52q-127 30 -178 48q-138 50 -183 131q-28 49 -28 131t39 152q97 174 424 173q193 -1 321 -79t144 -258h-277q-10 143 -198 143q-162 0 -162 -98q1 -44 29 -64t53 -32t216 -56q191 -43 279 -106t88 -197
q0 -193 -138 -281t-345 -88t-349 89t-149 284h277q2 -90 65 -134t149 -44z" />
    <glyph glyph-name="t" unicode="t" horiz-adv-x="720" 
d="M479 1376v-317h213v-195h-213v-524q0 -74 25 -98t86 -25q61 0 102 8v-227q-62 -10 -194 -10t-220 53t-90 199v624h-176v195h176v317h291z" />
    <glyph glyph-name="u" unicode="u" horiz-adv-x="1214" 
d="M1104 1059v-1059h-277v147h-6q-53 -86 -140 -131t-183 -45q-219 0 -303 111t-84 326v651h290v-598q0 -133 43 -197t153 -63q110 -1 163 71t53 232v555h291z" />
    <glyph glyph-name="v" unicode="v" horiz-adv-x="1064" 
d="M1055 1059l-359 -1059h-323l-363 1059h305l224 -723h4l223 723h289z" />
    <glyph glyph-name="w" unicode="w" horiz-adv-x="1667" 
d="M1655 1059l-334 -1059h-299l-188 711h-5l-180 -711h-301l-336 1059h307l195 -719h4l176 719h283l180 -717h4l195 717h299z" />
    <glyph glyph-name="x" unicode="x" horiz-adv-x="1099" 
d="M0 0l381 557l-348 502h332l186 -277l184 277h322l-348 -496l391 -563h-332l-221 334l-221 -334h-326z" />
    <glyph glyph-name="y" unicode="y" horiz-adv-x="1062" 
d="M1075 1059l-442 -1192q-47 -129 -131 -184t-234 -56q-80 0 -178 11v239q150 -10 170 -10q72 7 100 69t0 130l-372 993h311l240 -725h4l231 725h301z" />
    <glyph glyph-name="z" unicode="z" horiz-adv-x="1062" 
d="M45 0v219l551 621h-510v219h893v-219l-551 -621h590v-219h-973z" />
    <glyph glyph-name="braceleft" unicode="{" horiz-adv-x="681" 
d="M682 1497v-229h-111q-111 0 -110 -150v-311q0 -215 -203 -242v-6q70 -6 136 -59t67 -166v-328q0 -150 110 -149h111v-230h-260q-84 0 -168 75t-84 202v399q0 84 -62 127t-126 43v178q63 0 126 46q62 46 62 139v385q0 127 84 201t168 75h260z" />
    <glyph glyph-name="bar" unicode="|" horiz-adv-x="456" 
d="M119 -438v2048h219v-2048h-219z" />
    <glyph glyph-name="braceright" unicode="}" horiz-adv-x="681" 
d="M0 -373v230h111q111 0 110 149v328q0 113 67 166t136 59v6q-203 27 -203 242v311q0 150 -110 150h-111v229h260q84 0 168 -75t84 -201v-385q0 -92 62 -138t126 -47v-178q-64 0 -126 -43t-62 -127v-399q0 -127 -84 -202t-168 -75h-260z" />
    <glyph glyph-name="asciitilde" unicode="~" horiz-adv-x="1228" 
d="M822 338q-72 0 -197 70t-231 70t-175 -148l-82 190q92 176 256 176q90 0 272 -85q125 -54 164 -54t75 25q36 24 56 50t50 73l82 -191q-41 -55 -68 -86q-27 -30 -78 -60q-52 -30 -124 -30z" />
    <glyph glyph-name="uni00A0" unicode="&#xa0;" horiz-adv-x="569" 
 />
    <glyph glyph-name="exclamdown" unicode="&#xa1;" horiz-adv-x="569" 
d="M133 -375v393l80 631h145l78 -631v-393h-303zM446 1087v-315h-321v315h321z" />
    <glyph glyph-name="cent" unicode="&#xa2;" 
d="M532 -236v207q-217 14 -353 167q-136 154 -136 384t129 388t360 177v175h121v-175q178 -2 316 -114q137 -113 143 -289h-285q-6 74 -55 126t-119 58v-678q74 14 125 80t53 146h285q-16 -190 -144 -310t-319 -135v-207h-121zM532 190v676q-102 -28 -150 -118t-48 -207
q-1 -290 198 -351z" />
    <glyph glyph-name="sterling" unicode="&#xa3;" 
d="M43 633v174h131q-35 45 -63 122q-29 77 -29 161q0 172 138 290t380 117q242 0 374 -133t130 -379h-277q-15 154 -56 202q-61 72 -159 71t-153 -52t-55 -130t22 -139t61 -130h273v-174h-215q16 -55 16 -127q0 -154 -168 -287l4 -4q77 47 131 47t170 -22q106 -25 160 -25
q96 0 180 88l123 -207q-137 -131 -319 -131q-121 0 -232 39t-194 39q-136 0 -236 -78l-127 191q231 150 232 340q0 59 -39 137h-203z" />
    <glyph glyph-name="currency" unicode="&#xa4;" 
d="M570 1006q-120 0 -188 -85t-69 -205q0 -120 69 -204q68 -84 188 -84t186 86t66 204t-66 203t-186 85zM1075 724q0 -186 -94 -304l113 -115l-113 -112l-117 118q-106 -102 -294 -102t-300 100l-114 -119l-115 115l117 119q-98 116 -98 302t98 284l-117 118l117 117
l116 -115q111 94 294 94t286 -91l119 116l125 -125l-115 -112q92 -102 92 -288z" />
    <glyph glyph-name="yen" unicode="&#xa5;" 
d="M735 0h-311v283h-322v194h322v94l-29 60h-293v194h195l-315 637h333l271 -637l264 637h332l-318 -637h195v-194h-293l-31 -60v-94h324v-194h-324v-283z" />
    <glyph glyph-name="brokenbar" unicode="&#xa6;" horiz-adv-x="456" 
d="M338 1354v-512h-219v512h219zM119 -182v512h219v-512h-219z" />
    <glyph glyph-name="section" unicode="&#xa7;" 
d="M1012 1102h-254q0 78 -47 127t-117 49t-118 -37t-48 -91t41 -92q41 -37 112 -76q71 -38 214 -104q143 -65 233 -150q90 -84 90 -200t-58 -198t-155 -117q113 -86 113 -245t-132 -250t-322 -91q-190 -1 -317 99q-128 100 -126 299h254q10 -178 200 -179q66 0 109 35t43 89
q0 88 -83 142q-83 55 -247 126q-165 71 -271 167q-105 97 -106 232q0 221 220 299q-88 94 -88 207q0 164 129 259t308 95q179 1 301 -105t122 -290zM274 652q0 -56 66 -91l369 -201q33 -14 65 -14t62 38q29 38 28 75q0 80 -92 129l-338 190q-43 23 -55 21q-43 -4 -74 -47
q-31 -44 -31 -100z" />
    <glyph glyph-name="dieresis" unicode="&#xa8;" horiz-adv-x="530" 
d="M-84 1223v239h277v-239h-277zM338 1223v239h276v-239h-276z" />
    <glyph glyph-name="copyright" unicode="&#xa9;" horiz-adv-x="1638" 
d="M848 281q-197 0 -319 130q-121 131 -121 329t117 326q118 128 319 128q146 0 248 -83t122 -234h-159q-15 73 -73 113t-138 40q-115 0 -177 -81q-63 -81 -63 -207t68 -212t164 -86t154 43t65 117h166q-25 -150 -128 -236t-245 -87zM818 1333q-244 0 -410 -171t-166 -430
t167 -431t409 -172t411 172q168 172 168 431t-168 430t-411 171zM33 731q0 225 110 404q111 178 289 270t387 92t387 -92t289 -270t111 -404q0 -338 -232 -552t-555 -214q-324 0 -555 214t-231 552z" />
    <glyph glyph-name="ordfeminine" unicode="&#xaa;" horiz-adv-x="704" 
d="M369 1462q298 0 299 -182v-340q0 -111 24 -154h-207q-10 31 -14 64q-80 -82 -221 -82q-102 0 -166 50t-64 152t64 146q64 43 170 55q18 1 50 5q56 6 104 15q65 11 65 58t-32 63t-81 17q-102 0 -110 -90h-209q30 223 328 223zM471 1055v41q-20 -20 -75 -27q-56 -8 -62 -10
q-104 -23 -105 -82q0 -76 93 -76q149 0 149 154z" />
    <glyph glyph-name="guillemotleft" unicode="&#xab;" horiz-adv-x="909" 
d="M408 164l-322 256v276l322 252v-246l-185 -145l185 -147v-246zM823 164l-321 256v276l321 252v-246l-184 -145l184 -147v-246z" />
    <glyph glyph-name="logicalnot" unicode="&#xac;" horiz-adv-x="1228" 
d="M1130 831v-628h-219v409h-813v219h1032z" />
    <glyph glyph-name="uni00AD" unicode="&#xad;" horiz-adv-x="833" 
d="M109 434v250h616v-250h-616z" />
    <glyph glyph-name="registered" unicode="&#xae;" horiz-adv-x="1638" 
d="M684 1030v-225h152q84 -1 126 23t42 96q0 106 -177 106h-143zM514 305v858h324q168 0 252 -59t84 -195q0 -211 -226 -229l230 -375h-179l-208 367h-107v-367h-170zM818 1333q-244 0 -410 -171t-166 -430t167 -431t409 -172t411 172q168 172 168 431t-168 430t-411 171z
M33 732q0 339 231 552t555 213t555 -213q232 -213 232 -552t-232 -553t-555 -214q-324 0 -555 214t-231 553z" />
    <glyph glyph-name="macron" unicode="&#xaf;" horiz-adv-x="530" 
d="M-117 1262v153h764v-153h-764z" />
    <glyph glyph-name="degree" unicode="&#xb0;" horiz-adv-x="819" 
d="M240 1159q0 -74 51 -127t119 -53t118 53t52 127q0 74 -52 127t-118 53q-68 0 -119 -53t-51 -127zM106 1159q0 127 88 215t216 88q127 0 215 -88t88 -215t-88 -215t-215 -88q-128 0 -216 88t-88 215z" />
    <glyph glyph-name="plusminus" unicode="&#xb1;" horiz-adv-x="1228" 
d="M98 0v219h1035v-219h-1035zM725 1036v-268h408v-219h-408v-268h-219v268h-408v219h408v268h219z" />
    <glyph glyph-name="twosuperior" unicode="&#xb2;" horiz-adv-x="802" 
d="M428 1462q135 0 227 -72t93 -204q0 -88 -43 -148t-123 -114l-85 -51q-75 -43 -115 -75t-71 -75h428v-164h-684q0 154 87 247q77 81 185 146q107 66 121 77q65 49 78 81q36 92 -22 153q-36 35 -102 35t-103 -59t-33 -133h-209q-1 164 93 260t278 96z" />
    <glyph glyph-name="threesuperior" unicode="&#xb3;" horiz-adv-x="802" 
d="M336 1094q144 0 177 41q17 20 17 62t-37 72q-37 29 -95 29t-96 -42t-36 -105h-196q4 143 92 227t229 84t239 -66q97 -67 97 -186q0 -63 -35 -111t-100 -65v-4q76 -14 121 -67t45 -125q0 -142 -102 -220t-261 -78q-160 0 -256 86q-96 85 -94 242h197q4 -70 44 -116
t108 -47q68 0 112 36q43 37 43 85q-1 48 -19 74q-36 49 -194 50v144z" />
    <glyph glyph-name="acute" unicode="&#xb4;" horiz-adv-x="530" 
d="M629 1481l-316 -291h-202l196 291h322z" />
    <glyph glyph-name="mu" unicode="&#xb5;" horiz-adv-x="1214" 
d="M1104 1059v-1059h-277v147h-6q-51 -82 -130 -129t-136 -47q-109 0 -154 49v-393h-290v1432h290v-598q0 -133 43 -197t153 -63q110 -1 163 71t53 232v555h291z" />
    <glyph glyph-name="paragraph" unicode="&#xb6;" horiz-adv-x="1269" 
d="M453 -340v1071q-211 0 -330 97t-119 262q0 204 129 288t363 84h600v-1802h-209v1638h-225v-1638h-209z" />
    <glyph glyph-name="periodcentered" unicode="&#xb7;" horiz-adv-x="569" 
d="M113 589q0 71 51 122t122 51t122 -52t51 -120t-51 -121t-121 -53t-122 51t-52 122z" />
    <glyph glyph-name="cedilla" unicode="&#xb8;" horiz-adv-x="530" 
d="M238 -340q84 0 84 68t-82 67q-43 0 -82 -14l-43 49l121 174h100l-80 -113h4q20 11 83 11t119 -37t56 -107q0 -205 -239 -204q-123 0 -254 45l43 98q86 -37 170 -37z" />
    <glyph glyph-name="onesuperior" unicode="&#xb9;" horiz-adv-x="802" 
d="M592 1444v-885h-209v561h-225v154q238 -8 262 170h172z" />
    <glyph glyph-name="ordmasculine" unicode="&#xba;" horiz-adv-x="751" 
d="M244 1116q0 -78 34 -136t98 -58t98 58t34 136t-34 135t-98 57t-98 -56q-34 -58 -34 -136zM25 1114q0 160 95 254t255 94t256 -94t96 -254t-95 -253t-256 -93t-256 93t-95 253z" />
    <glyph glyph-name="guillemotright" unicode="&#xbb;" horiz-adv-x="909" 
d="M86 948l322 -252v-276l-322 -256v246l184 147l-184 145v246zM502 948l321 -252v-276l-321 -256v246l184 147l-184 145v246z" />
    <glyph glyph-name="onequarter" unicode="&#xbc;" horiz-adv-x="1826" 
d="M483 1444v-885h-209v561h-225v154q238 -8 262 170h172zM311 -45l848 1524h174l-844 -1524h-178zM1411 346v295h-4l-233 -295h237zM1411 0v182h-393v191l385 487h205v-514h116v-164h-116v-182h-197z" />
    <glyph glyph-name="onehalf" unicode="&#xbd;" horiz-adv-x="1820" 
d="M1413 903q135 0 227 -73t93 -203q0 -89 -43 -149t-123 -113l-85 -51q-75 -44 -115 -76t-71 -74h428v-164h-684q0 154 87 247q70 73 180 142t125 80q68 51 80 82t12 73t-35 79q-35 36 -101 36t-104 -59q-37 -59 -33 -133h-209q-2 164 92 260t279 96zM483 1444v-885h-209
v561h-225v154q238 -8 262 170h172zM311 -45l848 1524h174l-844 -1524h-178z" />
    <glyph glyph-name="threequarters" unicode="&#xbe;" horiz-adv-x="1820" 
d="M371 1094q144 0 177 41q17 20 17 62t-38 72q-38 29 -95 29t-95 -42t-36 -105h-197q4 143 92 227t230 84q141 0 239 -66q97 -67 97 -186q0 -63 -35 -111t-100 -65v-4q76 -14 121 -67t45 -125q1 -142 -101 -220t-262 -78t-256 86q-96 85 -94 242h196q4 -70 44 -116t109 -47
q68 0 112 36q43 37 43 85t-18 74q-36 49 -195 50v144zM489 -45l848 1524h174l-843 -1524h-179zM1452 346v295h-4l-234 -295h238zM1452 0v182h-393v191l385 487h205v-514h116v-164h-116v-182h-197z" />
    <glyph glyph-name="questiondown" unicode="&#xbf;" 
d="M743 1087v-315h-321v315h321zM575 -401q-137 0 -241 39q-176 66 -242 227q-27 66 -26 129q0 133 45 208q49 81 149 155t115 93q43 53 51 79t12 51v77h277v-92q-9 -121 -55 -191t-132 -138q-86 -66 -113 -109q-28 -43 -28 -104q0 -184 174 -185q101 0 153 74t54 192h301
q-4 -223 -139 -364t-355 -141z" />
    <glyph glyph-name="Agrave" unicode="&#xc0;" horiz-adv-x="1402" 
d="M653 1593l-315 291h321l197 -291h-203zM700 1102l-190 -537h379l-184 537h-5zM-14 0l555 1462h329l547 -1462h-334l-110 326h-547l-115 -326h-325z" />
    <glyph glyph-name="Aacute" unicode="&#xc1;" horiz-adv-x="1402" 
d="M1065 1884l-315 -291h-203l196 291h322zM700 1102l-190 -537h379l-184 537h-5zM-14 0l555 1462h329l547 -1462h-334l-110 326h-547l-115 -326h-325z" />
    <glyph glyph-name="Acircumflex" unicode="&#xc2;" horiz-adv-x="1402" 
d="M342 1593l227 291h267l225 -291h-240l-127 166l-131 -166h-221zM700 1102l-190 -537h379l-184 537h-5zM-14 0l555 1462h329l547 -1462h-334l-110 326h-547l-115 -326h-325z" />
    <glyph glyph-name="Atilde" unicode="&#xc3;" horiz-adv-x="1402" 
d="M848 1632q-59 0 -168 35q-96 35 -139 35t-61 -22t-29 -64h-125q25 114 81 182t177 68q39 0 131 -35q86 -37 132 -37q47 0 69 20t20 52h141q-33 -106 -63 -152q-57 -82 -166 -82zM700 1102l-190 -537h379l-184 537h-5zM-14 0l555 1462h329l547 -1462h-334l-110 326h-547
l-115 -326h-325z" />
    <glyph glyph-name="Adieresis" unicode="&#xc4;" horiz-adv-x="1402" 
d="M352 1626v240h277v-240h-277zM774 1626v240h277v-240h-277zM700 1102l-190 -537h379l-184 537h-5zM-14 0l555 1462h329l547 -1462h-334l-110 326h-547l-115 -326h-325z" />
    <glyph glyph-name="Aring" unicode="&#xc5;" horiz-adv-x="1402" 
d="M451 1747q0 102 73 176q74 74 177 74t177 -74t74 -176t-74 -176t-176 -74q-104 0 -178 74q-73 74 -73 176zM571 1747q0 -61 36 -102t93 -41t95 41q37 41 36 102q0 61 -36 102q-37 41 -95 41t-93 -41q-36 -41 -36 -102zM700 1102l-190 -537h379l-184 537h-5zM-14 0
l555 1462h329l547 -1462h-334l-110 326h-547l-115 -326h-325z" />
    <glyph glyph-name="AE" unicode="&#xc6;" horiz-adv-x="2009" 
d="M1917 1462v-270h-680v-313h639v-250h-639v-359h696v-270h-1007v326h-459l-148 -326h-342l699 1462h1241zM926 565v627h-70l-283 -627h353z" />
    <glyph glyph-name="Ccedilla" unicode="&#xc7;" horiz-adv-x="1517" 
d="M789 1227q-129 0 -221 -74q-168 -135 -169 -428q1 -205 99 -347t299 -142q143 0 228 89t103 238h312q-25 -272 -197 -433t-440 -165l-53 -74h4q20 11 82 11t119 -37q56 -37 57 -107q0 -205 -240 -204q-123 0 -254 45l43 98q86 -37 170 -37t84 68t-82 67q-43 0 -82 -14
l-43 49l99 141q-291 31 -460 241t-169 530t193 537q194 218 526 218q249 0 425 -140t205 -386h-311q-14 109 -106 183t-221 73z" />
    <glyph glyph-name="Egrave" unicode="&#xc8;" horiz-adv-x="1327" 
d="M616 1593l-315 291h322l196 -291h-203zM141 0v1462h1094v-270h-772v-313h708v-250h-708v-359h788v-270h-1110z" />
    <glyph glyph-name="Eacute" unicode="&#xc9;" horiz-adv-x="1327" 
d="M1028 1884l-315 -291h-203l197 291h321zM141 0v1462h1094v-270h-772v-313h708v-250h-708v-359h788v-270h-1110z" />
    <glyph glyph-name="Ecircumflex" unicode="&#xca;" horiz-adv-x="1327" 
d="M305 1593l227 291h267l225 -291h-240l-127 166l-131 -166h-221zM141 0v1462h1094v-270h-772v-313h708v-250h-708v-359h788v-270h-1110z" />
    <glyph glyph-name="Edieresis" unicode="&#xcb;" horiz-adv-x="1327" 
d="M315 1626v240h277v-240h-277zM737 1626v240h277v-240h-277zM141 0v1462h1094v-270h-772v-313h708v-250h-708v-359h788v-270h-1110z" />
    <glyph glyph-name="Igrave" unicode="&#xcc;" horiz-adv-x="604" 
d="M254 1593l-315 291h321l197 -291h-203zM141 0v1462h322v-1462h-322z" />
    <glyph glyph-name="Iacute" unicode="&#xcd;" horiz-adv-x="604" 
d="M666 1884l-316 -291h-203l197 291h322zM141 0v1462h322v-1462h-322z" />
    <glyph glyph-name="Icircumflex" unicode="&#xce;" horiz-adv-x="604" 
d="M-57 1593l227 291h266l226 -291h-240l-127 166l-131 -166h-221zM141 0v1462h322v-1462h-322z" />
    <glyph glyph-name="Idieresis" unicode="&#xcf;" horiz-adv-x="604" 
d="M-47 1626v240h276v-240h-276zM375 1626v240h276v-240h-276zM141 0v1462h322v-1462h-322z" />
    <glyph glyph-name="Eth" unicode="&#xd0;" horiz-adv-x="1517" 
d="M463 1192v-318h328v-239h-328v-365h287q156 0 260 106t104 338q0 230 -96 354t-326 124h-229zM141 0v637h-135v237h135v588h631q297 0 480 -185q184 -185 184 -527t-170 -546t-494 -204h-631z" />
    <glyph glyph-name="Ntilde" unicode="&#xd1;" horiz-adv-x="1517" 
d="M905 1632q-59 0 -168 35q-96 35 -139 35t-61 -22t-29 -64h-125q25 114 81 182t177 68q39 0 131 -35q86 -37 132 -37t68 20t21 52h142q-33 -106 -64 -152q-57 -82 -166 -82zM141 0v1462h320l610 -981h4v981h301v-1462h-321l-609 979h-4v-979h-301z" />
    <glyph glyph-name="Ograve" unicode="&#xd2;" horiz-adv-x="1593" 
d="M750 1593l-316 291h322l196 -291h-202zM399 725q1 -205 99 -347t299 -142t299 142t98 347q0 295 -168 428q-92 74 -229 74t-229 -74q-168 -135 -169 -428zM78 729q0 332 193 550q194 218 526 218q331 0 525 -218t194 -550t-195 -548t-525 -216t-524 216t-194 548z" />
    <glyph glyph-name="Oacute" unicode="&#xd3;" horiz-adv-x="1593" 
d="M1161 1884l-315 -291h-203l197 291h321zM399 725q1 -205 99 -347t299 -142t299 142t98 347q0 295 -168 428q-92 74 -229 74t-229 -74q-168 -135 -169 -428zM78 729q0 332 193 550q194 218 526 218q331 0 525 -218t194 -550t-195 -548t-525 -216t-524 216t-194 548z" />
    <glyph glyph-name="Ocircumflex" unicode="&#xd4;" horiz-adv-x="1593" 
d="M438 1593l228 291h266l225 -291h-239l-127 166l-132 -166h-221zM399 725q1 -205 99 -347t299 -142t299 142t98 347q0 295 -168 428q-92 74 -229 74t-229 -74q-168 -135 -169 -428zM78 729q0 332 193 550q194 218 526 218q331 0 525 -218t194 -550t-195 -548t-525 -216
t-524 216t-194 548z" />
    <glyph glyph-name="Otilde" unicode="&#xd5;" horiz-adv-x="1593" 
d="M944 1632q-59 0 -168 35q-96 35 -139 35t-61 -22t-29 -64h-125q25 114 81 182t177 68q39 0 131 -35q86 -37 132 -37q47 0 69 20t20 52h142q-33 -106 -64 -152q-57 -82 -166 -82zM399 725q1 -205 99 -347t299 -142t299 142t98 347q0 295 -168 428q-92 74 -229 74t-229 -74
q-168 -135 -169 -428zM78 729q0 332 193 550q194 218 526 218q331 0 525 -218t194 -550t-195 -548t-525 -216t-524 216t-194 548z" />
    <glyph glyph-name="Odieresis" unicode="&#xd6;" horiz-adv-x="1593" 
d="M449 1626v240h276v-240h-276zM870 1626v240h277v-240h-277zM399 725q1 -205 99 -347t299 -142t299 142t98 347q0 295 -168 428q-92 74 -229 74t-229 -74q-168 -135 -169 -428zM78 729q0 332 193 550q194 218 526 218q331 0 525 -218t194 -550t-195 -548t-525 -216
t-524 216t-194 548z" />
    <glyph glyph-name="multiply" unicode="&#xd7;" horiz-adv-x="1228" 
d="M287 35l-156 155l330 328l-326 328l156 155l325 -327l328 327l156 -155l-330 -328l330 -328l-156 -155l-328 330z" />
    <glyph glyph-name="Oslash" unicode="&#xd8;" horiz-adv-x="1593" 
d="M797 236q201 0 299 142t98 324t-55 302l-604 -668q100 -100 262 -100zM457 449l606 673q-99 104 -251 104t-244 -73q-168 -135 -169 -428q1 -159 58 -276zM78 740q0 320 193 539q194 218 526 218q276 0 460 -158l164 183l103 -90l-172 -191q164 -209 164 -527t-195 -533
q-195 -216 -524 -216q-274 0 -457 156l-170 -189l-100 88l176 195q-168 205 -168 525z" />
    <glyph glyph-name="Ugrave" unicode="&#xd9;" horiz-adv-x="1517" 
d="M711 1593l-316 291h322l196 -291h-202zM1382 1462v-909q0 -291 -162 -439t-463 -148q-300 0 -461 146q-161 148 -161 441v909h322v-909q0 -145 62 -231q63 -86 235 -86t240 74t67 243v909h321z" />
    <glyph glyph-name="Uacute" unicode="&#xda;" horiz-adv-x="1517" 
d="M1122 1884l-315 -291h-203l197 291h321zM1382 1462v-909q0 -291 -162 -439t-463 -148q-300 0 -461 146q-161 148 -161 441v909h322v-909q0 -145 62 -231q63 -86 235 -86t240 74t67 243v909h321z" />
    <glyph glyph-name="Ucircumflex" unicode="&#xdb;" horiz-adv-x="1517" 
d="M399 1593l228 291h266l225 -291h-239l-127 166l-131 -166h-222zM1382 1462v-909q0 -291 -162 -439t-463 -148q-300 0 -461 146q-161 148 -161 441v909h322v-909q0 -145 62 -231q63 -86 235 -86t240 74t67 243v909h321z" />
    <glyph glyph-name="Udieresis" unicode="&#xdc;" horiz-adv-x="1517" 
d="M410 1626v240h276v-240h-276zM831 1626v240h277v-240h-277zM1382 1462v-909q0 -291 -162 -439t-463 -148q-300 0 -461 146q-161 148 -161 441v909h322v-909q0 -145 62 -231q63 -86 235 -86t240 74t67 243v909h321z" />
    <glyph glyph-name="Yacute" unicode="&#xdd;" horiz-adv-x="1366" 
d="M1047 1884l-316 -291h-203l197 291h322zM520 0v569l-538 893h362l342 -577l340 577h358l-542 -901v-561h-322z" />
    <glyph glyph-name="Thorn" unicode="&#xde;" horiz-adv-x="1366" 
d="M463 1014v-439h250q131 1 207 47t75 173q0 127 -75 173q-76 46 -207 46h-250zM141 0v1462h322v-198h338q174 0 292 -70q117 -70 165 -171t48 -228q1 -272 -213 -400q-118 -70 -292 -69h-338v-326h-322z" />
    <glyph glyph-name="germandbls" unicode="&#xdf;" horiz-adv-x="1251" 
d="M115 0v1006q-4 492 481 491q197 0 331 -100t134 -293q0 -96 -53 -177t-138 -108v-4q129 -29 198 -129t69 -237q0 -195 -127 -336t-318 -142q-86 0 -168 13v237q33 -10 84 -10q102 0 170 72q68 71 68 181t-62 178t-188 67q-23 0 -72 -4v192q33 -4 45 -4q90 0 153 46
q62 46 62 136q0 182 -196 182q-86 0 -134 -54t-48 -146v-1057h-291z" />
    <glyph glyph-name="agrave" unicode="&#xe0;" horiz-adv-x="1175" 
d="M541 1190l-316 291h322l196 -291h-202zM1061 786v-550q0 -176 37 -236h-295q-18 57 -21 102q-125 -131 -356 -131q-160 0 -260 81t-100 245t114 234q97 60 246 79q29 4 74 10q151 19 197 35q73 27 73 104t-49 105t-139 29q-179 0 -193 -160h-291q12 187 152 271t346 83
q465 0 465 -301zM770 410v108q-30 -26 -80 -36q-49 -9 -94 -15q-46 -6 -98 -16t-97 -44t-45 -106q0 -135 179 -135q235 0 235 244z" />
    <glyph glyph-name="aacute" unicode="&#xe1;" horiz-adv-x="1175" 
d="M952 1481l-315 -291h-203l197 291h321zM1061 786v-550q0 -176 37 -236h-295q-18 57 -21 102q-125 -131 -356 -131q-160 0 -260 81t-100 245t114 234q97 60 246 79q29 4 74 10q151 19 197 35q73 27 73 104t-49 105t-139 29q-179 0 -193 -160h-291q12 187 152 271t346 83
q465 0 465 -301zM770 410v108q-30 -26 -80 -36q-49 -9 -94 -15q-46 -6 -98 -16t-97 -44t-45 -106q0 -135 179 -135q235 0 235 244z" />
    <glyph glyph-name="acircumflex" unicode="&#xe2;" horiz-adv-x="1175" 
d="M229 1190l228 291h266l225 -291h-239l-127 166l-131 -166h-222zM1061 786v-550q0 -176 37 -236h-295q-18 57 -21 102q-125 -131 -356 -131q-160 0 -260 81t-100 245t114 234q97 60 246 79q29 4 74 10q151 19 197 35q73 27 73 104t-49 105t-139 29q-179 0 -193 -160h-291
q12 187 152 271t346 83q465 0 465 -301zM770 410v108q-30 -26 -80 -36q-49 -9 -94 -15q-46 -6 -98 -16t-97 -44t-45 -106q0 -135 179 -135q235 0 235 244z" />
    <glyph glyph-name="atilde" unicode="&#xe3;" horiz-adv-x="1175" 
d="M735 1229q-59 0 -168 35q-161 59 -200 13q-18 -22 -29 -65h-125q25 113 81 182t177 68q39 0 131 -35q147 -63 201 -16q22 20 20 51h142q-33 -106 -64 -151q-57 -82 -166 -82zM1061 786v-550q0 -176 37 -236h-295q-18 57 -21 102q-125 -131 -356 -131q-160 0 -260 81
t-100 245t114 234q97 60 246 79q29 4 74 10q151 19 197 35q73 27 73 104t-49 105t-139 29q-179 0 -193 -160h-291q12 187 152 271t346 83q465 0 465 -301zM770 410v108q-30 -26 -80 -36q-49 -9 -94 -15q-46 -6 -98 -16t-97 -44t-45 -106q0 -135 179 -135q235 0 235 244z" />
    <glyph glyph-name="adieresis" unicode="&#xe4;" horiz-adv-x="1175" 
d="M240 1223v239h276v-239h-276zM662 1223v239h276v-239h-276zM1061 786v-550q0 -176 37 -236h-295q-18 57 -21 102q-125 -131 -356 -131q-160 0 -260 81t-100 245t114 234q97 60 246 79q29 4 74 10q151 19 197 35q73 27 73 104t-49 105t-139 29q-179 0 -193 -160h-291
q12 187 152 271t346 83q465 0 465 -301zM770 410v108q-30 -26 -80 -36q-49 -9 -94 -15q-46 -6 -98 -16t-97 -44t-45 -106q0 -135 179 -135q235 0 235 244z" />
    <glyph glyph-name="aring" unicode="&#xe5;" horiz-adv-x="1175" 
d="M338 1343q0 103 74 177t177 74t177 -74t74 -176t-74 -177q-74 -73 -177 -73t-177 74t-74 175zM459 1343q0 -61 36 -102t93 -41t94 41t37 102t-37 103t-94 41q-57 1 -93 -41t-36 -103zM1061 786v-550q0 -176 37 -236h-295q-18 57 -21 102q-125 -131 -356 -131
q-160 0 -260 81t-100 245t114 234q97 60 246 79q29 4 74 10q151 19 197 35q73 27 73 104t-49 105t-139 29q-179 0 -193 -160h-291q12 187 152 271t346 83q465 0 465 -301zM770 410v108q-30 -26 -80 -36q-49 -9 -94 -15q-46 -6 -98 -16t-97 -44t-45 -106q0 -135 179 -135
q235 0 235 244z" />
    <glyph glyph-name="ae" unicode="&#xe6;" horiz-adv-x="1857" 
d="M1280 893q-106 0 -171 -74t-67 -176h465q2 102 -60 176q-61 74 -167 74zM905 152q-137 -181 -451 -181q-148 0 -263 76q-113 76 -113 244t112 239q87 56 242 80q240 35 279 49q76 31 77 99q0 135 -192 135t-199 -164h-291q4 127 80 210q137 150 406 149q268 -1 364 -144
q123 143 355 143q129 0 225 -51q176 -93 236 -339q26 -109 26 -238h-756q-4 -113 67 -203t185 -90q182 0 211 166h283q-43 -166 -177 -263t-311 -98q-270 0 -395 181zM788 385v131q-35 -31 -85 -39t-97 -15t-97 -16q-50 -10 -95 -42t-45 -101q0 -137 180 -137q92 0 166 56
q73 57 73 163z" />
    <glyph glyph-name="ccedilla" unicode="&#xe7;" horiz-adv-x="1175" 
d="M616 868q-127 0 -187 -103t-60 -239t58 -235q57 -101 169 -101q213 -1 246 216h280q-26 -203 -154 -315t-331 -118l-57 -82h4q20 11 82 11t119 -37q56 -37 57 -107q0 -205 -240 -204q-123 0 -254 45l43 98q86 -37 170 -37t84 68t-82 67q-43 0 -82 -14l-43 49l103 147
q-209 21 -336 169t-127 385t144 397t396 159q202 0 344 -104t154 -297h-285q-29 182 -215 182z" />
    <glyph glyph-name="egrave" unicode="&#xe8;" horiz-adv-x="1175" 
d="M541 1190l-316 291h322l196 -291h-202zM582 868q-112 0 -170 -72t-62 -153h473q-20 115 -74 170t-167 55zM1114 459h-764q12 -268 260 -269q84 0 150 42t80 96h256q-117 -356 -496 -357q-248 0 -394 155q-146 156 -146 400t150 403q152 159 400 159t384 -185
q136 -184 120 -444z" />
    <glyph glyph-name="eacute" unicode="&#xe9;" horiz-adv-x="1175" 
d="M952 1481l-315 -291h-203l197 291h321zM582 868q-112 0 -170 -72t-62 -153h473q-20 115 -74 170t-167 55zM1114 459h-764q12 -268 260 -269q84 0 150 42t80 96h256q-117 -356 -496 -357q-248 0 -394 155q-146 156 -146 400t150 403q152 159 400 159t384 -185
q136 -184 120 -444z" />
    <glyph glyph-name="ecircumflex" unicode="&#xea;" horiz-adv-x="1175" 
d="M229 1190l228 291h266l225 -291h-239l-127 166l-131 -166h-222zM582 868q-112 0 -170 -72t-62 -153h473q-20 115 -74 170t-167 55zM1114 459h-764q12 -268 260 -269q84 0 150 42t80 96h256q-117 -356 -496 -357q-248 0 -394 155q-146 156 -146 400t150 403
q152 159 400 159t384 -185q136 -184 120 -444z" />
    <glyph glyph-name="edieresis" unicode="&#xeb;" horiz-adv-x="1175" 
d="M240 1223v239h276v-239h-276zM662 1223v239h276v-239h-276zM582 868q-112 0 -170 -72t-62 -153h473q-20 115 -74 170t-167 55zM1114 459h-764q12 -268 260 -269q84 0 150 42t80 96h256q-117 -356 -496 -357q-248 0 -394 155q-146 156 -146 400t150 403q152 159 400 159
t384 -185q136 -184 120 -444z" />
    <glyph glyph-name="igrave" unicode="&#xec;" horiz-adv-x="528" 
d="M217 1190l-315 291h321l197 -291h-203zM119 0v1059h291v-1059h-291z" />
    <glyph glyph-name="iacute" unicode="&#xed;" horiz-adv-x="528" 
d="M629 1481l-316 -291h-202l196 291h322zM119 0v1059h291v-1059h-291z" />
    <glyph glyph-name="icircumflex" unicode="&#xee;" horiz-adv-x="528" 
d="M-94 1190l227 291h266l226 -291h-240l-127 166l-131 -166h-221zM119 0v1059h291v-1059h-291z" />
    <glyph glyph-name="idieresis" unicode="&#xef;" horiz-adv-x="528" 
d="M-84 1223v239h277v-239h-277zM338 1223v239h276v-239h-276zM119 0v1059h291v-1059h-291z" />
    <glyph glyph-name="eth" unicode="&#xf0;" horiz-adv-x="1251" 
d="M624 -29q-248 1 -397 149q-150 148 -149 386q0 298 205 448q111 82 269 82t273 -82h4q-53 123 -208 260l-230 -114l-119 114l220 111q-90 63 -173 102l189 142q111 -61 203 -135l252 127l106 -121l-233 -117q346 -334 338 -764q0 -256 -151 -422t-399 -166zM626 190
q136 0 196 96t60 234t-64 230q-66 92 -196 92t-192 -92t-61 -230t61 -234t196 -96z" />
    <glyph glyph-name="ntilde" unicode="&#xf1;" horiz-adv-x="1214" 
d="M754 1229q-59 0 -168 35q-162 59 -201 13q-18 -22 -29 -65h-125q25 113 81 182t177 68q39 0 132 -35q148 -64 200 -16q23 20 21 51h141q-33 -106 -63 -151q-57 -82 -166 -82zM111 0v1059h276v-148h6q53 86 141 131t183 45q219 -1 303 -111t84 -325v-651h-291v598
q0 132 -43 196q-42 64 -152 64t-163 -72t-54 -231v-555h-290z" />
    <glyph glyph-name="ograve" unicode="&#xf2;" horiz-adv-x="1251" 
d="M578 1190l-316 291h322l196 -291h-202zM369 528q0 -145 60 -241q61 -97 197 -97t196 96t61 242q-1 144 -61 242t-196 98t-197 -97q-60 -98 -60 -243zM1174 529q0 -253 -150 -405t-398 -153q-248 1 -398 153t-150 405t149 406q150 153 399 153q248 0 398 -154
q150 -152 150 -405z" />
    <glyph glyph-name="oacute" unicode="&#xf3;" horiz-adv-x="1251" 
d="M989 1481l-315 -291h-203l197 291h321zM369 528q0 -145 60 -241q61 -97 197 -97t196 96t61 242q-1 144 -61 242t-196 98t-197 -97q-60 -98 -60 -243zM1174 529q0 -253 -150 -405t-398 -153q-248 1 -398 153t-150 405t149 406q150 153 399 153q248 0 398 -154
q150 -152 150 -405z" />
    <glyph glyph-name="ocircumflex" unicode="&#xf4;" horiz-adv-x="1251" 
d="M266 1190l228 291h266l225 -291h-240l-127 166l-131 -166h-221zM369 528q0 -145 60 -241q61 -97 197 -97t196 96t61 242q-1 144 -61 242t-196 98t-197 -97q-60 -98 -60 -243zM1174 529q0 -253 -150 -405t-398 -153q-248 1 -398 153t-150 405t149 406q150 153 399 153
q248 0 398 -154q150 -152 150 -405z" />
    <glyph glyph-name="otilde" unicode="&#xf5;" horiz-adv-x="1251" 
d="M772 1229q-59 0 -168 35q-160 58 -201 13q-18 -22 -28 -65h-125q25 113 81 182t177 68q39 0 131 -35q147 -63 201 -16q22 20 20 51h141q-33 -106 -63 -151q-57 -82 -166 -82zM369 528q0 -145 60 -241q61 -97 197 -97t196 96t61 242q-1 144 -61 242t-196 98t-197 -97
q-60 -98 -60 -243zM1174 529q0 -253 -150 -405t-398 -153q-248 1 -398 153t-150 405t149 406q150 153 399 153q248 0 398 -154q150 -152 150 -405z" />
    <glyph glyph-name="odieresis" unicode="&#xf6;" horiz-adv-x="1251" 
d="M276 1223v239h277v-239h-277zM698 1223v239h277v-239h-277zM369 528q0 -145 60 -241q61 -97 197 -97t196 96t61 242q-1 144 -61 242t-196 98t-197 -97q-60 -98 -60 -243zM1174 529q0 -253 -150 -405t-398 -153q-248 1 -398 153t-150 405t149 406q150 153 399 153
q248 0 398 -154q150 -152 150 -405z" />
    <glyph glyph-name="divide" unicode="&#xf7;" horiz-adv-x="1228" 
d="M442 92q0 72 52 122t122 50t121 -51t51 -119t-51 -122t-121 -54t-122 51t-52 123zM616 770q-70 0 -122 51t-52 122t52 122t122 51t121 -52t51 -120t-51 -121t-121 -53zM98 408v219h1035v-219h-1035z" />
    <glyph glyph-name="oslash" unicode="&#xf8;" horiz-adv-x="1251" 
d="M78 535q0 247 149 400q150 153 398 152q195 0 333 -98l109 125l76 -65l-111 -125q142 -152 142 -400t-150 -400t-399 -153q-199 0 -338 103l-121 -137l-76 65l123 139q-135 147 -135 394zM638 190q124 0 184 96t60 223q0 126 -32 206l-399 -455q63 -70 187 -70zM399 352
l396 451q-61 65 -183 65t-182 -97t-62 -223q0 -126 31 -196z" />
    <glyph glyph-name="ugrave" unicode="&#xf9;" horiz-adv-x="1214" 
d="M559 1190l-315 291h321l197 -291h-203zM1104 1059v-1059h-277v147h-6q-53 -86 -140 -131t-183 -45q-219 0 -303 111t-84 326v651h290v-598q0 -133 43 -197t153 -63q110 -1 163 71t53 232v555h291z" />
    <glyph glyph-name="uacute" unicode="&#xfa;" horiz-adv-x="1214" 
d="M971 1481l-316 -291h-202l196 291h322zM1104 1059v-1059h-277v147h-6q-53 -86 -140 -131t-183 -45q-219 0 -303 111t-84 326v651h290v-598q0 -133 43 -197t153 -63q110 -1 163 71t53 232v555h291z" />
    <glyph glyph-name="ucircumflex" unicode="&#xfb;" horiz-adv-x="1214" 
d="M248 1190l227 291h266l226 -291h-240l-127 166l-131 -166h-221zM1104 1059v-1059h-277v147h-6q-53 -86 -140 -131t-183 -45q-219 0 -303 111t-84 326v651h290v-598q0 -133 43 -197t153 -63q110 -1 163 71t53 232v555h291z" />
    <glyph glyph-name="udieresis" unicode="&#xfc;" horiz-adv-x="1214" 
d="M258 1223v239h277v-239h-277zM680 1223v239h276v-239h-276zM1104 1059v-1059h-277v147h-6q-53 -86 -140 -131t-183 -45q-219 0 -303 111t-84 326v651h290v-598q0 -133 43 -197t153 -63q110 -1 163 71t53 232v555h291z" />
    <glyph glyph-name="yacute" unicode="&#xfd;" horiz-adv-x="1062" 
d="M895 1481l-315 -291h-203l196 291h322zM1075 1059l-442 -1192q-47 -129 -131 -184t-234 -56q-80 0 -178 11v239q150 -10 170 -10q72 7 100 69t0 130l-372 993h311l240 -725h4l231 725h301z" />
    <glyph glyph-name="thorn" unicode="&#xfe;" horiz-adv-x="1251" 
d="M897 525q0 143 -62 243q-61 100 -193 100t-191 -98t-59 -242t60 -241q62 -97 194 -97t192 96t59 239zM111 -373v1835h290v-538h5q100 164 301 163q237 -1 359 -163t122 -398t-122 -395q-122 -160 -343 -160q-96 0 -181 41t-136 119h-5v-504h-290z" />
    <glyph glyph-name="ydieresis" unicode="&#xff;" horiz-adv-x="1062" 
d="M182 1223v239h277v-239h-277zM604 1223v239h277v-239h-277zM1075 1059l-442 -1192q-47 -129 -131 -184t-234 -56q-80 0 -178 11v239q150 -10 170 -10q72 7 100 69t0 130l-372 993h311l240 -725h4l231 725h301z" />
    <glyph glyph-name="dotlessi" unicode="&#x131;" horiz-adv-x="528" 
d="M119 0v1059h291v-1059h-291z" />
    <glyph glyph-name="Lslash" unicode="&#x141;" horiz-adv-x="1214" 
d="M141 0v438l-164 -114v229l164 115v794h322v-569l432 303v-229l-432 -303v-394h713v-270h-1035z" />
    <glyph glyph-name="lslash" unicode="&#x142;" horiz-adv-x="528" 
d="M119 0v586l-137 -109v209l137 109v667h291v-438l137 109v-209l-137 -109v-815h-291z" />
    <glyph glyph-name="OE" unicode="&#x152;" horiz-adv-x="2238" 
d="M1102 569v349q0 137 -89 223t-209 86t-198 -43q-136 -75 -185 -275q-22 -86 -22 -182q-1 -203 95 -347t286 -144q146 0 234 92t88 241zM1114 0v111h-4q-62 -70 -158 -108t-194 -38q-313 0 -497 220q-183 221 -183 539t187 546t499 227q238 0 346 -139h4v104h1024v-270
h-725v-313h664v-250h-664v-359h739v-270h-1038z" />
    <glyph glyph-name="oe" unicode="&#x153;" horiz-adv-x="1896" 
d="M1837 459h-756q0 -119 65 -194t187 -75q154 0 213 146h283q-51 -172 -183 -268t-313 -97q-270 0 -383 181q-51 -90 -154 -136t-221 -45q-237 0 -367 162t-130 401q0 238 143 396t390 158t352 -168q53 78 153 122t201 45q264 0 392 -176t128 -452zM594 190q233 0 233 339
t-227 339q-123 0 -177 -101t-54 -237t53 -238t172 -102zM1316 868q-108 0 -170 -64q-61 -64 -65 -161h465q-4 105 -63 165t-167 60z" />
    <glyph glyph-name="Scaron" unicode="&#x160;" horiz-adv-x="1329" 
d="M1024 1884l-225 -291h-267l-227 291h230l131 -166l133 166h225zM360 485q0 -137 92 -203t232 -67q68 0 126 13q58 12 108 56t51 113q0 69 -50 109q-50 41 -110 59q-120 36 -233 63q-211 50 -344 140q-134 90 -134 287q0 141 83 245q157 197 464 197q162 0 289 -45
t212 -155t85 -271h-311q-12 221 -289 221q-88 0 -155 -41q-66 -41 -66 -123q0 -83 70 -115t315 -94q246 -62 340 -135q145 -113 145 -313t-160 -331q-160 -130 -436 -130t-457 133q-180 133 -178 387h311z" />
    <glyph glyph-name="scaron" unicode="&#x161;" horiz-adv-x="1099" 
d="M909 1481l-225 -291h-266l-228 291h230l131 -166l133 166h225zM550 166q86 0 142 33q58 33 58 100t-88 101q-61 24 -189 52q-127 30 -178 48q-138 50 -183 131q-28 49 -28 131t39 152q97 174 424 173q193 -1 321 -79t144 -258h-277q-10 143 -198 143q-162 0 -162 -98
q1 -44 29 -64t53 -32t216 -56q191 -43 279 -106t88 -197q0 -193 -138 -281t-345 -88t-349 89t-149 284h277q2 -90 65 -134t149 -44z" />
    <glyph glyph-name="Ydieresis" unicode="&#x178;" horiz-adv-x="1366" 
d="M334 1626v240h276v-240h-276zM756 1626v240h276v-240h-276zM520 0v569l-538 893h362l342 -577l340 577h358l-542 -901v-561h-322z" />
    <glyph glyph-name="Zcaron" unicode="&#x17d;" horiz-adv-x="1327" 
d="M1024 1884l-225 -291h-267l-227 291h230l131 -166l133 166h225zM47 0v254l784 938h-722v270h1151v-254l-785 -938h805v-270h-1233z" />
    <glyph glyph-name="zcaron" unicode="&#x17e;" horiz-adv-x="1062" 
d="M891 1481l-225 -291h-267l-227 291h229l131 -166l134 166h225zM45 0v219l551 621h-510v219h893v-219l-551 -621h590v-219h-973z" />
    <glyph glyph-name="florin" unicode="&#x192;" 
d="M893 1497q82 0 154 -14l-37 -219q-36 14 -98 14t-95 -29t-45 -98l-51 -266h201l-33 -195h-205l-115 -635q-41 -221 -127 -312t-301 -91q-65 0 -151 6l39 219q39 -6 97 -7t88 34t44 112l129 674h-188l37 195h186l49 260q37 195 130 273t292 79z" />
    <glyph glyph-name="circumflex" unicode="&#x2c6;" horiz-adv-x="530" 
d="M-94 1190l227 291h266l226 -291h-240l-127 166l-131 -166h-221z" />
    <glyph glyph-name="caron" unicode="&#x2c7;" horiz-adv-x="530" 
d="M625 1481l-226 -291h-266l-227 291h229l131 -166l133 166h226z" />
    <glyph glyph-name="uni02C9" unicode="&#x2c9;" horiz-adv-x="530" 
d="M-117 1262v153h764v-153h-764z" />
    <glyph glyph-name="breve" unicode="&#x2d8;" horiz-adv-x="530" 
d="M256 1343q190 0 225 146h129q-39 -299 -364 -299q-301 0 -326 299h133q11 -76 71 -111t132 -35z" />
    <glyph glyph-name="dotaccent" unicode="&#x2d9;" horiz-adv-x="530" 
d="M127 1223v239h276v-239h-276z" />
    <glyph glyph-name="ring" unicode="&#x2da;" horiz-adv-x="530" 
d="M14 1343q0 103 74 177t177 74t177 -74t74 -176t-74 -177q-74 -73 -177 -73t-177 74t-74 175zM135 1343q0 -61 36 -102t93 -41t94 41t37 102t-37 103t-94 41q-57 1 -93 -41t-36 -103z" />
    <glyph glyph-name="ogonek" unicode="&#x2db;" horiz-adv-x="530" 
d="M18 -262q0 129 234 268h133q-170 -154 -170 -260q0 -31 24 -50t56 -20q74 1 119 62l98 -45q-108 -139 -262 -139t-206 84q-26 41 -26 100z" />
    <glyph glyph-name="tilde" unicode="&#x2dc;" horiz-adv-x="530" 
d="M412 1229q-59 0 -168 35q-162 59 -201 13q-18 -22 -29 -65h-125q25 113 81 182t177 68q39 0 132 -35q148 -64 200 -16q23 20 21 51h141q-33 -106 -63 -151q-57 -82 -166 -82z" />
    <glyph glyph-name="hungarumlaut" unicode="&#x2dd;" horiz-adv-x="530" 
d="M817 1481l-305 -291h-203l187 291h321zM393 1481l-305 -291h-203l187 291h321z" />
    <glyph glyph-name="uni03A9" unicode="&#x3a9;" horiz-adv-x="1441" 
d="M354 207v6q-106 103 -178 251t-72 331q0 279 174 471t447 192q143 0 261 -57q218 -105 305 -361q40 -115 40 -231q0 -186 -73 -342t-179 -254v-6h281v-207h-535v154q106 72 177 222t71 367q0 216 -93 359t-255 143t-261 -141q-99 -140 -99 -356q-1 -216 71 -374t178 -220
v-154h-538v207h278z" />
    <glyph glyph-name="uni03BC" unicode="&#x3bc;" horiz-adv-x="1214" 
d="M1104 1059v-1059h-277v147h-6q-51 -82 -130 -129t-136 -47q-109 0 -154 49v-393h-290v1432h290v-598q0 -133 43 -197t153 -63q110 -1 163 71t53 232v555h291z" />
    <glyph glyph-name="pi" unicode="&#x3c0;" horiz-adv-x="1224" 
d="M1032 860v-555q0 -186 27 -305h-248q-35 61 -35 293v567h-284q-8 -196 -46 -454t-86 -406h-249q51 176 88 430t41 430q-139 0 -201 -20l-29 172q88 68 332 67h854l-20 -219h-144z" />
    <glyph glyph-name="endash" unicode="&#x2013;" horiz-adv-x="1024" 
d="M0 434v250h1024v-250h-1024z" />
    <glyph glyph-name="emdash" unicode="&#x2014;" horiz-adv-x="2048" 
d="M266 434v250h1516v-250h-1516z" />
    <glyph glyph-name="quoteleft" unicode="&#x2018;" horiz-adv-x="569" 
d="M430 1120v-315h-291v313q-4 136 79 232t212 112v-135q-135 -45 -135 -207h135z" />
    <glyph glyph-name="quoteright" unicode="&#x2019;" horiz-adv-x="569" 
d="M139 1147v315h291v-313q4 -135 -79 -231t-212 -113v135q135 45 135 207h-135z" />
    <glyph glyph-name="quotesinglbase" unicode="&#x201a;" horiz-adv-x="569" 
d="M139 0v315h291v-313q4 -135 -79 -231t-212 -113v135q135 45 135 207h-135z" />
    <glyph glyph-name="quotedblleft" unicode="&#x201c;" horiz-adv-x="948" 
d="M401 1120v-315h-290v313q-4 135 78 232q83 96 212 112v-135q-135 -45 -135 -207h135zM838 1120v-315h-291v313q-4 136 79 232t212 112v-135q-135 -45 -136 -207h136z" />
    <glyph glyph-name="quotedblright" unicode="&#x201d;" horiz-adv-x="948" 
d="M111 1147v315h290v-313q3 -135 -79 -231t-211 -113v135q135 45 135 207h-135zM547 1147v315h291v-313q4 -135 -79 -231t-212 -113v135q135 45 135 207h-135z" />
    <glyph glyph-name="quotedblbase" unicode="&#x201e;" horiz-adv-x="948" 
d="M111 0v315h290v-313q3 -135 -79 -231t-211 -113v135q135 45 135 207h-135zM547 0v315h291v-313q4 -135 -79 -231t-212 -113v135q135 45 135 207h-135z" />
    <glyph glyph-name="dagger" unicode="&#x2020;" 
d="M430 -340v1159h-381v240h381v403h277v-403h383v-240h-383v-1159h-277z" />
    <glyph glyph-name="daggerdbl" unicode="&#x2021;" 
d="M430 -340v395h-381v240h381v524h-381v240h381v403h277v-403h383v-240h-383v-524h383v-240h-383v-395h-277z" />
    <glyph glyph-name="bullet" unicode="&#x2022;" horiz-adv-x="1026" 
d="M147 731q1 152 107 258q106 107 258 107t260 -106t107 -259q0 -151 -108 -259q-107 -108 -259 -108t-258 108q-106 107 -107 259z" />
    <glyph glyph-name="ellipsis" unicode="&#x2026;" horiz-adv-x="2048" 
d="M1544 0v315h322v-315h-322zM862 0v315h322v-315h-322zM180 0v315h322v-315h-322z" />
    <glyph glyph-name="perthousand" unicode="&#x2030;" horiz-adv-x="2349" 
d="M307 -45l848 1524h174l-844 -1524h-178zM378 1312q-52 -34 -52 -196t51 -205q25 -20 73 -20t77 44q28 44 28 124v51q0 166 -48 202q-24 17 -64 17t-65 -17zM141 1104q0 156 75 257t226 101q297 0 297 -356q1 -158 -73 -253t-220 -95t-226 95q-79 95 -79 251zM1846 525
q-52 -34 -52 -197t51 -203q25 -20 73 -21t73 36q32 51 32 132v52q0 167 -48 201q-23 17 -63 17t-66 -17zM1610 317q0 156 74 257q75 101 227 102q297 0 297 -357q0 -159 -74 -253t-220 -94t-225 94q-79 95 -79 251zM901 317q0 156 75 257t226 102q297 0 297 -357
q0 -159 -74 -253t-220 -94t-225 94q-79 95 -79 251zM1138 525q-53 -35 -53 -197t52 -203q25 -20 73 -21t72 36q33 52 33 132v52q0 166 -48 201q-24 17 -64 17t-65 -17z" />
    <glyph glyph-name="guilsinglleft" unicode="&#x2039;" horiz-adv-x="493" 
d="M408 164l-322 256v276l322 252v-246l-185 -145l185 -147v-246z" />
    <glyph glyph-name="guilsinglright" unicode="&#x203a;" horiz-adv-x="493" 
d="M86 948l322 -252v-276l-322 -256v246l184 147l-184 145v246z" />
    <glyph glyph-name="fraction" unicode="&#x2044;" horiz-adv-x="342" 
d="M-340 -45l848 1524h174l-844 -1524h-178z" />
    <glyph glyph-name="Euro" unicode="&#x20ac;" 
d="M786 1212q-215 0 -286 -280h499l-63 -148h-459l-2 -86h436l-63 -147h-356q66 -324 303 -324q152 0 315 129l-2 -309q-139 -82 -315 -82q-259 0 -409 160t-194 426h-157l63 147h82q0 72 2 86h-149l63 148h105q49 248 202 391q162 156 406 156q174 -1 373 -103l-125 -256
q-145 92 -269 92z" />
    <glyph glyph-name="afii61289" unicode="&#x2113;" horiz-adv-x="1044" 
d="M461 1061v-326q242 276 241 488q0 172 -112 172q-53 0 -91 -78t-38 -256zM215 1057q0 260 102 390t253 130t222 -101t70 -262q0 -324 -401 -714l2 -88q2 -111 53 -170t129 -60q145 1 258 189l105 -107q-145 -285 -422 -284q-174 0 -263 94t-104 245q0 14 -2 23
q-86 -70 -104 -84l-66 137q158 131 168 142v520z" />
    <glyph glyph-name="trademark" unicode="&#x2122;" horiz-adv-x="2048" 
d="M815 1462v-164h-240v-680h-208v680h-240v164h688zM1901 1462v-844h-197v599h-4l-217 -599h-142l-217 599h-4v-599h-196v844h278l211 -555l211 555h277z" />
    <glyph glyph-name="Omega" unicode="&#x2126;" horiz-adv-x="1441" 
d="M354 207v6q-106 103 -178 251t-72 331q0 279 174 471t447 192q143 0 261 -57q218 -105 305 -361q40 -115 40 -231q0 -186 -73 -342t-179 -254v-6h281v-207h-535v154q106 72 177 222t71 367q0 216 -93 359t-255 143t-261 -141q-99 -140 -99 -356q-1 -216 71 -374t178 -220
v-154h-538v207h278z" />
    <glyph glyph-name="estimated" unicode="&#x212e;" horiz-adv-x="1798" 
d="M1421 750v407q0 29 -20 49q-215 211 -504 211t-504 -219q-18 -18 -18 -49v-399q0 -14 10 -15h1028q8 1 8 15zM1726 696h-1341q-10 0 -10 -8v-407q0 -25 16 -45q215 -222 521 -222t522 248h118q-114 -133 -286 -211t-369 -78q-342 0 -585 217q-242 216 -242 526t242 528
q243 218 586 218t586 -218t242 -527v-21z" />
    <glyph glyph-name="partialdiff" unicode="&#x2202;" horiz-adv-x="1171" 
d="M524 195h2q106 0 181 131q74 131 90 301q-17 61 -79 117t-158 56t-163 -100q-67 -102 -67 -228t53 -202t141 -75zM524 1618q226 0 386 -205t161 -585q0 -380 -151 -614q-152 -232 -420 -232q-102 0 -186 44t-133 116q-105 150 -103 325q0 242 127 390t313 149
q111 0 190 -54t111 -110h2q2 16 2 69q0 203 -96 349q-95 146 -247 147q-152 0 -269 -98l-72 192q159 117 385 117z" />
    <glyph glyph-name="Delta" unicode="&#x2206;" horiz-adv-x="1339" 
d="M317 207h691l-224 610q-12 43 -58 181t-58 190h-6q-8 -41 -50 -166t-57 -174zM55 0v150l469 1318h303l455 -1314v-154h-1227z" />
    <glyph glyph-name="product" unicode="&#x220f;" horiz-adv-x="1470" 
d="M1417 1204h-207v-1403h-252v1403h-448v-1403h-252v1403h-207v232h1366v-232z" />
    <glyph glyph-name="summation" unicode="&#x2211;" 
d="M1098 -199h-1051v164l496 656l-477 636v179h999v-215h-657v-9l421 -550l-469 -617v-6h738v-238z" />
    <glyph glyph-name="minus" unicode="&#x2212;" horiz-adv-x="1228" 
d="M98 408v219h1035v-219h-1035z" />
    <glyph glyph-name="uni2215" unicode="&#x2215;" horiz-adv-x="342" 
d="M-340 -45l848 1524h174l-844 -1524h-178z" />
    <glyph glyph-name="uni2219" unicode="&#x2219;" horiz-adv-x="569" 
d="M113 589q0 71 51 122t122 51t122 -52t51 -120t-51 -121t-121 -53t-122 51t-52 122z" />
    <glyph glyph-name="radical" unicode="&#x221a;" horiz-adv-x="1208" 
d="M1225 1722l-459 -2011h-203l-305 903l-152 -59l-40 143l344 140l213 -658q8 -35 22 -95t19 -83l4 -2q16 115 30 193l351 1529h176z" />
    <glyph glyph-name="infinity" unicode="&#x221e;" horiz-adv-x="1593" 
d="M1163 797h-2q-76 0 -138 -55q-36 -32 -51 -45t-54 -60l-41 -47q98 -121 158 -166t138 -45t127 63q50 62 50 148t-52 146t-135 61zM438 379h2q52 0 108 34q56 35 88 67t85 95q-45 61 -65 87q-102 133 -220 134q-92 2 -143 -60t-51 -150t56 -148t140 -59zM1493 594v-2
q0 -160 -97 -256t-231 -96q-94 0 -181 52t-185 179q-94 -113 -179 -172t-208 -59t-218 97q-96 97 -96 248t96 249t242 98q193 0 369 -227q104 117 156 153q100 76 226 75t216 -94t90 -245z" />
    <glyph glyph-name="integral" unicode="&#x222b;" horiz-adv-x="806" 
d="M662 1593q-66 0 -103 -51q-55 -74 -55 -348q0 -164 14 -483t14 -506q0 -281 -73 -412q-76 -147 -260 -147q-96 0 -158 32l33 183q45 -21 96 -21t82 41q55 78 55 294t-15 544q-16 328 -16 504t29 282t94 176q82 94 238 95q76 0 125 -25l-29 -174q-37 16 -71 16z" />
    <glyph glyph-name="approxequal" unicode="&#x2248;" horiz-adv-x="1124" 
d="M766 252q-90 0 -229 82q-111 70 -165 70q-91 -1 -150 -75q-19 -26 -52 -75l-92 84q47 92 126 150t160 58t121 -18q41 -20 47 -23t32 -18t56 -32q30 -18 67 -38t86 -20q50 0 90 36t89 112l90 -82q-111 -211 -276 -211zM766 633q-98 0 -218 75q-120 74 -176 74
q-88 -1 -149 -74q-20 -26 -53 -73l-92 84q47 92 126 150q79 59 154 59q106 1 164 -37q58 -37 68 -41t57 -32q66 -40 120 -40t96 37t89 111l90 -82q-109 -211 -276 -211z" />
    <glyph glyph-name="notequal" unicode="&#x2260;" horiz-adv-x="1124" 
d="M1024 870v-147h-334l-123 -279h457v-147h-512l-102 -234l-117 48l82 186h-277v147h334l121 279h-455v147h510l101 230l116 -47l-80 -183h279z" />
    <glyph glyph-name="lessequal" unicode="&#x2264;" horiz-adv-x="1124" 
d="M1028 -25h-928v152h928v-152zM1020 205l-911 457v159l911 457v-172l-764 -361v-6l764 -362v-172z" />
    <glyph glyph-name="greaterequal" unicode="&#x2265;" horiz-adv-x="1124" 
d="M1024 -25h-922v152h922v-152zM113 1278l911 -457v-159l-911 -457v172l761 362v4l-761 363v172z" />
    <glyph glyph-name="lozenge" unicode="&#x25ca;" horiz-adv-x="1208" 
d="M881 711l-234 493q-29 76 -39 123h-6q-23 -84 -39 -123l-235 -481l235 -502q25 -72 35 -117h8q23 82 37 115zM1106 717l-406 -817h-204l-394 817l406 819h203z" />
    <hkern u1="T" u2="&#x161;" k="57" />
    <hkern u1="T" u2="&#xfc;" k="94" />
    <hkern u1="T" u2="&#xf6;" k="115" />
    <hkern u1="T" u2="&#xf2;" k="115" />
    <hkern u1="T" u2="&#xeb;" k="115" />
    <hkern u1="T" u2="&#xea;" k="170" />
    <hkern u1="T" u2="&#xe8;" k="170" />
    <hkern u1="T" u2="&#xe5;" k="115" />
    <hkern u1="T" u2="&#xe4;" k="57" />
    <hkern u1="T" u2="&#xe3;" k="115" />
    <hkern u1="T" u2="&#xe2;" k="115" />
    <hkern u1="T" u2="&#xe0;" k="115" />
    <hkern u1="V" u2="&#xf6;" k="57" />
    <hkern u1="V" u2="&#xf4;" k="84" />
    <hkern u1="V" u2="&#xee;" k="-8" />
    <hkern u1="V" u2="&#xeb;" k="57" />
    <hkern u1="V" u2="&#xea;" k="57" />
    <hkern u1="V" u2="&#xe8;" k="57" />
    <hkern u1="V" u2="&#xe5;" k="57" />
    <hkern u1="V" u2="&#xe4;" k="57" />
    <hkern u1="V" u2="&#xe3;" k="57" />
    <hkern u1="V" u2="&#xe2;" k="57" />
    <hkern u1="V" u2="&#xe0;" k="57" />
    <hkern u1="W" u2="&#xfc;" k="29" />
    <hkern u1="W" u2="&#xf6;" k="57" />
    <hkern u1="W" u2="&#xea;" k="57" />
    <hkern u1="W" u2="&#xe4;" k="57" />
    <hkern u1="Y" u2="&#xfc;" k="115" />
    <hkern u1="Y" u2="&#xf6;" k="141" />
    <hkern u1="&#x2018;" u2="&#x2018;" k="133" />
    <hkern u1="&#x2019;" u2="&#x2019;" k="133" />
    <hkern g1="f,fi,fl"
	g2="quoteright"
	k="-37" />
    <hkern g1="f,fi,fl"
	g2="f,germandbls,fi,fl"
	k="37" />
    <hkern g1="F"
	g2="A,Agrave,Aacute,Acircumflex,Atilde,Adieresis,Aring,AE"
	k="113" />
    <hkern g1="F"
	g2="comma"
	k="264" />
    <hkern g1="F"
	g2="period"
	k="264" />
    <hkern g1="L,Lslash"
	g2="T"
	k="227" />
    <hkern g1="L,Lslash"
	g2="V"
	k="188" />
    <hkern g1="L,Lslash"
	g2="W"
	k="113" />
    <hkern g1="L,Lslash"
	g2="y,yacute,ydieresis"
	k="76" />
    <hkern g1="L,Lslash"
	g2="Y,Yacute,Ydieresis"
	k="227" />
    <hkern g1="L,Lslash"
	g2="quoteright"
	k="152" />
    <hkern g1="P"
	g2="A,Agrave,Aacute,Acircumflex,Atilde,Adieresis,Aring,AE"
	k="152" />
    <hkern g1="P"
	g2="comma"
	k="264" />
    <hkern g1="P"
	g2="period"
	k="264" />
    <hkern g1="r"
	g2="comma"
	k="188" />
    <hkern g1="r"
	g2="period"
	k="188" />
    <hkern g1="r"
	g2="c,ccedilla"
	k="37" />
    <hkern g1="r"
	g2="d,dotlessi"
	k="37" />
    <hkern g1="r"
	g2="e,egrave,eacute,ecircumflex,edieresis"
	k="37" />
    <hkern g1="r"
	g2="n,ntilde"
	k="-37" />
    <hkern g1="r"
	g2="o,ograve,oacute,ocircumflex,otilde,odieresis,oslash,oe"
	k="37" />
    <hkern g1="r"
	g2="q"
	k="37" />
    <hkern g1="r"
	g2="hyphen"
	k="113" />
    <hkern g1="R"
	g2="T"
	k="37" />
    <hkern g1="R"
	g2="V"
	k="-12" />
    <hkern g1="R"
	g2="W"
	k="-12" />
    <hkern g1="R"
	g2="Y,Yacute,Ydieresis"
	k="76" />
    <hkern g1="T"
	g2="w"
	k="227" />
    <hkern g1="T"
	g2="y,yacute,ydieresis"
	k="188" />
    <hkern g1="T"
	g2="A,Agrave,Aacute,Acircumflex,Atilde,Adieresis,Aring,AE"
	k="152" />
    <hkern g1="T"
	g2="comma"
	k="227" />
    <hkern g1="T"
	g2="period"
	k="227" />
    <hkern g1="T"
	g2="c,ccedilla"
	k="227" />
    <hkern g1="T"
	g2="e,egrave,eacute,ecircumflex,edieresis"
	k="227" />
    <hkern g1="T"
	g2="o,ograve,oacute,ocircumflex,otilde,odieresis,oslash,oe"
	k="227" />
    <hkern g1="T"
	g2="hyphen"
	k="264" />
    <hkern g1="T"
	g2="a,agrave,aacute,acircumflex,atilde,adieresis,aring,ae"
	k="227" />
    <hkern g1="T"
	g2="r"
	k="188" />
    <hkern g1="T"
	g2="s,scaron"
	k="227" />
    <hkern g1="T"
	g2="u,ugrave,uacute,ucircumflex,udieresis"
	k="188" />
    <hkern g1="T"
	g2="colon"
	k="178" />
    <hkern g1="T"
	g2="semicolon"
	k="178" />
    <hkern g1="v"
	g2="comma"
	k="113" />
    <hkern g1="v"
	g2="period"
	k="113" />
    <hkern g1="V"
	g2="y,yacute,ydieresis"
	k="37" />
    <hkern g1="V"
	g2="A,Agrave,Aacute,Acircumflex,Atilde,Adieresis,Aring,AE"
	k="94" />
    <hkern g1="V"
	g2="comma"
	k="264" />
    <hkern g1="V"
	g2="period"
	k="264" />
    <hkern g1="V"
	g2="e,egrave,eacute,ecircumflex,edieresis"
	k="113" />
    <hkern g1="V"
	g2="o,ograve,oacute,ocircumflex,otilde,odieresis,oslash,oe"
	k="113" />
    <hkern g1="V"
	g2="hyphen"
	k="113" />
    <hkern g1="V"
	g2="a,agrave,aacute,acircumflex,atilde,adieresis,aring,ae"
	k="113" />
    <hkern g1="V"
	g2="r"
	k="76" />
    <hkern g1="V"
	g2="u,ugrave,uacute,ucircumflex,udieresis"
	k="76" />
    <hkern g1="V"
	g2="colon"
	k="102" />
    <hkern g1="V"
	g2="semicolon"
	k="102" />
    <hkern g1="V"
	g2="i,igrave,iacute,icircumflex,idieresis"
	k="37" />
    <hkern g1="w"
	g2="comma"
	k="113" />
    <hkern g1="w"
	g2="period"
	k="113" />
    <hkern g1="W"
	g2="A,Agrave,Aacute,Acircumflex,Atilde,Adieresis,Aring,AE"
	k="37" />
    <hkern g1="W"
	g2="comma"
	k="152" />
    <hkern g1="W"
	g2="period"
	k="152" />
    <hkern g1="W"
	g2="e,egrave,eacute,ecircumflex,edieresis"
	k="76" />
    <hkern g1="W"
	g2="o,ograve,oacute,ocircumflex,otilde,odieresis,oslash,oe"
	k="76" />
    <hkern g1="W"
	g2="a,agrave,aacute,acircumflex,atilde,adieresis,aring,ae"
	k="76" />
    <hkern g1="W"
	g2="r"
	k="37" />
    <hkern g1="W"
	g2="u,ugrave,uacute,ucircumflex,udieresis"
	k="37" />
    <hkern g1="W"
	g2="colon"
	k="37" />
    <hkern g1="W"
	g2="semicolon"
	k="37" />
    <hkern g1="y,yacute,ydieresis"
	g2="comma"
	k="113" />
    <hkern g1="y,yacute,ydieresis"
	g2="period"
	k="113" />
    <hkern g1="Y,Yacute,Ydieresis"
	g2="v"
	k="113" />
    <hkern g1="Y,Yacute,Ydieresis"
	g2="A,Agrave,Aacute,Acircumflex,Atilde,Adieresis,Aring,AE"
	k="152" />
    <hkern g1="Y,Yacute,Ydieresis"
	g2="comma"
	k="227" />
    <hkern g1="Y,Yacute,Ydieresis"
	g2="period"
	k="227" />
    <hkern g1="Y,Yacute,Ydieresis"
	g2="e,egrave,eacute,ecircumflex,edieresis"
	k="188" />
    <hkern g1="Y,Yacute,Ydieresis"
	g2="o,ograve,oacute,ocircumflex,otilde,odieresis,oslash,oe"
	k="188" />
    <hkern g1="Y,Yacute,Ydieresis"
	g2="q"
	k="188" />
    <hkern g1="Y,Yacute,Ydieresis"
	g2="hyphen"
	k="227" />
    <hkern g1="Y,Yacute,Ydieresis"
	g2="a,agrave,aacute,acircumflex,atilde,adieresis,aring,ae"
	k="188" />
    <hkern g1="Y,Yacute,Ydieresis"
	g2="u,ugrave,uacute,ucircumflex,udieresis"
	k="152" />
    <hkern g1="Y,Yacute,Ydieresis"
	g2="colon"
	k="164" />
    <hkern g1="Y,Yacute,Ydieresis"
	g2="semicolon"
	k="139" />
    <hkern g1="Y,Yacute,Ydieresis"
	g2="i,igrave,iacute,icircumflex,idieresis"
	k="27" />
    <hkern g1="Y,Yacute,Ydieresis"
	g2="p"
	k="152" />
    <hkern g1="quoteright"
	g2="s,scaron"
	k="152" />
    <hkern g1="quoteright"
	g2="t"
	k="37" />
  </font>
</defs></svg>
