<?xml version="1.0" encoding="utf-8"?>
<!-- Generator: Adobe Illustrator 21.0.2, SVG Export Plug-In . SVG Version: 6.00 Build 0)  -->
<svg version="1.1" id="Capa_1" xmlns="http://www.w3.org/2000/svg" xmlns:xlink="http://www.w3.org/1999/xlink" x="0px" y="0px"
	 viewBox="0 0 100 100" style="enable-background:new 0 0 100 100;" xml:space="preserve">
<style type="text/css">
	.st0{fill:#004D9B;}
	.st1{fill:#B0BAC2;}
</style>
<g>
	<path class="st0" d="M60.9,75c-0.7,0-1.3-0.3-1.8-0.8L37.3,51.5c-0.9-1-0.9-2.5,0-3.5l21.8-22.2c1-1,2.5-1,3.5,0c1,1,1,2.5,0,3.5
		L42.6,49.8l20.1,21c1,1,0.9,2.6-0.1,3.5C62.1,74.8,61.5,75,60.9,75z"/>
</g>
</svg>
