<?xml version="1.0" encoding="utf-8"?>
<!-- Generator: Adobe Illustrator 21.0.2, SVG Export Plug-In . SVG Version: 6.00 Build 0)  -->
<svg version="1.1" id="Capa_1" xmlns="http://www.w3.org/2000/svg" xmlns:xlink="http://www.w3.org/1999/xlink" x="0px" y="0px"
	 viewBox="0 0 100 100" style="enable-background:new 0 0 100 100;" xml:space="preserve">
<style type="text/css">
	.st0{fill:#004D9B;}
	.st1{fill:#B0BAC2;}
</style>
<g>
	<path class="st0" d="M50,78.5c-15.7,0-28.5-12.8-28.5-28.5S34.3,21.5,50,21.5c15.7,0,28.5,12.8,28.5,28.5S65.7,78.5,50,78.5z
		 M50,25.8c-13.4,0-24.2,10.9-24.2,24.2c0,13.4,10.9,24.2,24.2,24.2S74.2,63.4,74.2,50C74.2,36.6,63.4,25.8,50,25.8z"/>
	<g>
		<circle class="st0" cx="50" cy="38.8" r="2.7"/>
		<path class="st0" d="M50,44.6c-1.5,0-2.4,1-2.4,2.6v14.1c0,1.5,1,2.6,2.4,2.6s2.4-1,2.4-2.6V47.2C52.4,45.7,51.5,44.6,50,44.6z"/>
	</g>
</g>
</svg>
