<?xml version="1.0" encoding="utf-8"?>
<!-- Generator: Adobe Illustrator 21.0.2, SVG Export Plug-In . SVG Version: 6.00 Build 0)  -->
<svg version="1.1" id="Capa_1" xmlns="http://www.w3.org/2000/svg" xmlns:xlink="http://www.w3.org/1999/xlink" x="0px" y="0px"
	 viewBox="0 0 100 100" style="enable-background:new 0 0 100 100;" xml:space="preserve">
<style type="text/css">
	.st0{fill:#004D9B;}
	.st1{fill:#B0BAC2;}
</style>
<g>
	<path class="st0" d="M17,47.9c0.7,0,1.2-0.6,1.2-1.2v-29c4.5,0.4,9,0.4,13.4-0.2c5.1-0.6,10.2-1.9,15-3.9c4.8,1.9,9.9,3.2,15,3.9
		c4.5,0.5,9,0.6,13.4,0.2v30.1c0.2,0,0.5,0.1,0.7,0.2c0.1,0.1,0.2,0.1,0.2,0.1c0,0,0,0,0,0c0.1,0,0.1,0,0.2,0c0.1,0,0.1,0,0.2,0
		c0.5,0,0.9,0.2,1.2,0.5V16.3c0-0.4-0.2-0.7-0.4-0.9c-0.3-0.2-0.6-0.3-1-0.3c-4.7,0.6-9.5,0.6-14.2,0c-5.1-0.6-10.1-1.9-14.9-3.9
		c-0.3-0.1-0.6-0.1-0.9,0c-4.8,1.9-9.8,3.2-14.9,3.9c-4.7,0.6-9.5,0.6-14.2,0c-0.7-0.1-1.4,0.5-1.4,1.2v30.4
		C15.7,47.4,16.3,47.9,17,47.9"/>
	<path class="st0" d="M51.8,83.7c-1.7,0.9-3.4,1.8-5.2,2.5c-6.9-3-13.1-7.3-18.2-12.7c-4.2-4.5-7.7-9.6-10.2-15.3v-5
		c0-0.7-0.6-1.2-1.2-1.2c-0.7,0-1.2,0.6-1.2,1.2v5.3c0,0.2,0,0.3,0.1,0.5c2.7,6,6.3,11.5,10.8,16.2c5.5,5.8,12.1,10.4,19.6,13.5
		c0.3,0.1,0.7,0.1,1,0c2.6-1.1,5.1-2.4,7.5-3.8C53.6,84.8,52.7,84.3,51.8,83.7"/>
	<path class="st0" d="M48,82.7c-1.2,0-1.8-1.1-1.7-2C41,78.1,36.1,74.5,32,70.2c-3.6-3.8-6.6-8.2-8.9-12.9V23c0.4,0,0.7,0,1.1,0
		c2.7,0,5.4-0.2,8-0.5c4.9-0.6,9.8-1.8,14.4-3.5c4.7,1.7,9.5,2.9,14.4,3.5c2.6,0.3,5.3,0.5,8,0.5c0.4,0,0.7,0,1.1,0v5.3
		c0,0.7,0.6,1.2,1.2,1.2c0.7,0,1.2-0.6,1.2-1.2v-6.5c0-0.3-0.1-0.7-0.4-0.9c-0.2-0.2-0.6-0.4-0.9-0.3c-0.8,0-1.5,0-2.3,0
		c-2.6,0-5.2-0.2-7.7-0.5c-4.9-0.6-9.7-1.8-14.3-3.5c-0.3-0.1-0.6-0.1-0.9,0c-4.6,1.7-9.4,2.9-14.3,3.5c-2.5,0.3-5.1,0.5-7.7,0.5
		c-0.8,0-1.5,0-2.3,0c-0.3,0-0.7,0.1-0.9,0.3c-0.2,0.2-0.4,0.6-0.4,0.9v35.8c0,0.2,0,0.4,0.1,0.5c2.4,5.1,5.6,9.8,9.4,13.8
		c4.5,4.8,9.9,8.7,15.9,11.5c0.2,0.1,0.3,0.1,0.5,0.1c0.2,0,0.4,0,0.5-0.1c0.4-0.2,0.8-0.4,1.3-0.6C48.3,82.7,48.2,82.7,48,82.7"/>
	<path class="st0" d="M71.4,33.6c-0.7,0-1.2,0.6-1.2,1.2v11.5c0.1,0,0.1,0,0.2,0c0.7,0,1.3-0.1,2-0.2c0.1,0,0.2,0,0.3,0V34.8
		C72.7,34.1,72.1,33.6,71.4,33.6"/>
	<path class="st0" d="M76.7,66.5L63.1,80.1c-2.1,2.1-4.9,3.3-7.9,3.3s-5.8-1.2-7.9-3.3c-4.4-4.4-4.4-11.5,0-15.9l13.6-13.6
		c2.1-2.1,4.9-3.3,7.9-3.3c3,0,5.8,1.2,7.9,3.3C81.1,55,81.1,62.1,76.7,66.5 M83.4,57.6h-1.6c-0.2-2.8-1.2-5.5-3.2-7.7l1.1-1.1
		c0.4-0.4,0.4-0.9,0-1.3c-0.4-0.4-0.9-0.4-1.3,0l-1.1,1.1c-2.1-1.9-4.8-3-7.7-3.2V44c0-0.5-0.4-0.9-0.9-0.9c-0.5,0-0.9,0.4-0.9,0.9
		v1.6c-2.8,0.2-5.5,1.3-7.7,3.2l-1.1-1.1c-0.4-0.4-0.9-0.4-1.3,0c-0.4,0.4-0.4,0.9,0,1.3l1.1,1.1l-5.5,5.5l-1.1-1.1
		c-0.4-0.4-0.9-0.4-1.3,0c-0.4,0.4-0.4,0.9,0,1.3l1.1,1.1l-5.5,5.5l-1.1-1.1c-0.4-0.4-0.9-0.4-1.3,0c-0.4,0.4-0.4,0.9,0,1.3l1.1,1.1
		c-1.9,2.2-3,4.9-3.2,7.7h-1.6c-0.5,0-0.9,0.4-0.9,0.9c0,0.5,0.4,0.9,0.9,0.9h1.6c0.2,2.8,1.2,5.5,3.2,7.7l-0.9,0.9
		c0.1,0,0.2,0,0.3,0c0.6,0.1,1,0.5,1.2,1.1l0.7-0.7c2.1,1.9,4.8,3,7.7,3.2v1.6c0,0.5,0.4,0.9,0.9,0.9c0.5,0,0.9-0.4,0.9-0.9v-1.6
		c2.8-0.2,5.5-1.3,7.7-3.2l1.1,1.1c0.2,0.2,0.4,0.3,0.6,0.3c0.2,0,0.5-0.1,0.6-0.3c0.4-0.4,0.4-0.9,0-1.3L65,80.8l5.5-5.5l1.1,1.1
		c0.2,0.2,0.4,0.3,0.6,0.3c0.2,0,0.5-0.1,0.6-0.3c0.4-0.4,0.4-0.9,0-1.3L71.9,74l5.5-5.5l1.1,1.1c0.2,0.2,0.4,0.3,0.6,0.3
		c0.2,0,0.5-0.1,0.6-0.3c0.4-0.4,0.4-0.9,0-1.3l-1.1-1.1c1.9-2.2,3-4.9,3.2-7.7h1.6c0.5,0,0.9-0.4,0.9-0.9
		C84.3,58,83.9,57.6,83.4,57.6"/>
	<path class="st0" d="M62.1,51.9c-0.4,0.4-0.4,0.9,0,1.3c0.4,0.4,0.9,0.4,1.3,0c3-3,7.8-3,10.7,0c3,3,3,7.8,0,10.7L60.5,77.6
		c-1.4,1.4-3.3,2.2-5.4,2.2c-2,0-3.9-0.8-5.4-2.2s-2.2-3.3-2.2-5.4s0.8-3.9,2.2-5.4l11.1-11.1c0.4-0.4,0.4-0.9,0-1.3
		c-0.4-0.4-0.9-0.4-1.3,0L48.5,65.5c-1.8,1.8-2.8,4.1-2.8,6.7s1,4.9,2.8,6.7c1.8,1.8,4.1,2.8,6.7,2.8c2.5,0,4.9-1,6.7-2.8l13.6-13.6
		c3.7-3.7,3.7-9.6,0-13.3C71.8,48.2,65.8,48.2,62.1,51.9"/>
</g>
</svg>
