<?xml version="1.0" encoding="utf-8"?>
<!-- Generator: Adobe Illustrator 21.0.2, SVG Export Plug-In . SVG Version: 6.00 Build 0)  -->
<svg version="1.1" id="Capa_1" xmlns="http://www.w3.org/2000/svg" xmlns:xlink="http://www.w3.org/1999/xlink" x="0px" y="0px"
	 viewBox="0 0 100 100" style="enable-background:new 0 0 100 100;" xml:space="preserve">
<style type="text/css">
	.st0{fill:#004D9B;}
	.st1{fill:#B0BAC2;}
</style>
<g>
	<path class="st0" d="M77.2,74.9H22.8c-2.1,0-3.2-1.6-3.2-3.2V30.9h3.5v40.5l53.7,0l0-42.8l-57.2,0v-3.5h57.5c2.1,0,3.2,1.6,3.2,3.2
		v43.4C80.4,73.8,78.7,74.9,77.2,74.9z M70.8,59.5H29.2V56h41.7V59.5z M70.8,51.7H29.2v-3.5h41.7V51.7z M70.8,44H29.2v-3.5h41.7V44z
		"/>
</g>
</svg>
