<?xml version="1.0" encoding="utf-8"?>
<!-- Generator: Adobe Illustrator 21.0.2, SVG Export Plug-In . SVG Version: 6.00 Build 0)  -->
<svg version="1.1" id="Capa_1" xmlns="http://www.w3.org/2000/svg" xmlns:xlink="http://www.w3.org/1999/xlink" x="0px" y="0px"
	 viewBox="0 0 100 100" style="enable-background:new 0 0 100 100;" xml:space="preserve">
<style type="text/css">
	.st0{fill:#004D9B;}
	.st1{fill:#B0BAC2;}
</style>
<polygon class="st1" points="89.1,18.7 81.3,10.9 50,42.2 18.7,10.9 10.9,18.7 42.2,50 10.9,81.3 18.7,89.1 50,57.8 81.3,89.1 
	89.1,81.3 57.8,50 "/>
</svg>
