<?xml version="1.0" encoding="utf-8"?>
<!-- Generator: Adobe Illustrator 21.0.2, SVG Export Plug-In . SVG Version: 6.00 Build 0)  -->
<svg version="1.1" id="Capa_1" xmlns="http://www.w3.org/2000/svg" xmlns:xlink="http://www.w3.org/1999/xlink" x="0px" y="0px"
	 viewBox="0 0 100 100" style="enable-background:new 0 0 100 100;" xml:space="preserve">
<style type="text/css">
	.st0{fill:#004D9B;}
	.st1{fill:#B0BAC2;}
</style>
<g>
	<path class="st0" d="M39.1,75c-0.6,0-1.3-0.2-1.7-0.7c-1-1-1-2.5,0-3.5l20.1-20.5l-20.1-21c-1-1-0.9-2.6,0.1-3.5
		c1-1,2.6-0.9,3.5,0.1l21.8,22.7c0.9,1,0.9,2.5,0,3.5L40.9,74.2C40.4,74.7,39.8,75,39.1,75z"/>
</g>
</svg>
