<?xml version="1.0" encoding="utf-8"?>
<!-- Generator: Adobe Illustrator 21.0.2, SVG Export Plug-In . SVG Version: 6.00 Build 0)  -->
<svg version="1.1" id="Capa_1" xmlns="http://www.w3.org/2000/svg" xmlns:xlink="http://www.w3.org/1999/xlink" x="0px" y="0px"
	 viewBox="0 0 100 100" style="enable-background:new 0 0 100 100;" xml:space="preserve">
<style type="text/css">
	.st0{fill:#004D9B;}
	.st1{fill:#B0BAC2;}
</style>
<g>
	<g>
		<path class="st0" d="M50,92.5C26.2,92.5,6.8,73.4,6.8,50S26.2,7.5,50,7.5c23.8,0,43.2,19.1,43.2,42.5S73.8,92.5,50,92.5z M50,9.3
			C27.2,9.3,8.6,27.6,8.6,50c0,22.4,18.6,40.7,41.4,40.7c22.8,0,41.4-18.2,41.4-40.7C91.4,27.6,72.8,9.3,50,9.3z"/>
		<path class="st0" d="M66.5,45.9H55.7V35.3c0-3.1-2-5.1-5.2-5.1s-5.2,2-5.2,5.1v10.6H34.7c-3.1,0-5.2,2-5.2,5.1
			c0,3.1,2,5.1,5.2,5.1h10.7v10.6c0,3.1,2,5.1,5.2,5.1s5.2-2,5.2-5.1V56h10.7c3.1,0,5.2-2,5.2-5.1C71.6,47.9,69.6,45.9,66.5,45.9z"
			/>
	</g>
</g>
</svg>
