<?xml version="1.0" standalone="no"?>
<!DOCTYPE svg PUBLIC "-//W3C//DTD SVG 1.1//EN" "http://www.w3.org/Graphics/SVG/1.1/DTD/svg11.dtd">
<svg xmlns="http://www.w3.org/2000/svg">
<metadata>Generated by Fontastic.me</metadata>
<defs>
<font id="untitled-font-1" horiz-adv-x="512">
<font-face font-family="untitled-font-1" units-per-em="512" ascent="480" descent="-32"/>
<missing-glyph horiz-adv-x="512" />

<glyph glyph-name="ic-btntancar" unicode="&#97;" d="M456 416l-40 40-160-160-160 160-40-40 160-160-160-160 40-40 160 160 160-160 40 40-160 160z"/>
<glyph glyph-name="ic-next" unicode="&#98;" d="M200 128c-3 0-6 1-9 4-5 5-5 12 0 18l103 104-103 108c-5 5-4 13 1 18 5 5 13 5 18-1l112-116c4-5 4-13 0-18l-113-113c-2-2-5-4-9-4z"/>
<glyph glyph-name="ic-prev" unicode="&#99;" d="M312 128c-4 0-7 2-9 4l-112 116c-5 5-5 13 0 18l112 114c5 5 12 5 18 0 5-5 5-13 0-18l-103-105 103-107c5-6 5-14 0-18-3-3-6-4-9-4z"/>
<glyph glyph-name="ic-btnpop" unicode="&#100;" d="M256 38c-122 0-221 98-221 218 0 120 99 218 221 218 122 0 221-98 221-218 0-120-99-218-221-218z m0 426c-117 0-212-93-212-208 0-115 95-208 212-208 117 0 212 93 212 208 0 115-95 208-212 208z m84-187l-55 0 0 54c0 16-10 26-26 26-17 0-27-10-27-26l0-54-54 0c-16 0-27-10-27-26 0-16 10-26 27-26l54 0 0-55c0-15 11-26 27-26 16 0 27 11 27 26l0 55 54 0c16 0 27 11 27 26 0 16-11 26-27 26z"/>
<glyph glyph-name="ic-adn" unicode="&#101;" d="M404 164c-3 0-6 1-9 3-5 3-9 9-9 16 0 6 4 13 9 16 3 1 6 2 9 2 11 0 19-8 19-18 0-10-8-19-19-19m-20-5l-12-21c-3 1-6 2-10 2-15 0-28-11-30-25l-24 0c-3 14-16 25-30 25-4 0-7-1-10-2l-13 21c7 6 11 15 11 23 0 9-4 18-11 23l13 21c3-1 6-1 10-1 14 0 27 11 30 24l24 0c3-13 15-24 30-24 3 0 7 0 10 1l12-21c-7-5-10-14-10-23 0-8 3-17 10-23m-22-68c-10 0-18 8-18 18 0 10 8 18 18 18 3 0 6-1 9-2 6-3 9-9 9-16 0-10-8-18-18-18m-85 0c-10 0-18 8-18 18 0 7 3 13 9 16 2 1 6 2 9 2 10 0 18-8 18-18 0-10-8-18-18-18m-33 75c-3-1-6-2-10-2-10 0-18 8-18 18 0 11 8 19 18 19 4 0 7-1 10-3 5-3 9-9 9-16 0-6-4-12-9-16m24 106c3 1 6 2 10 2 10 0 18-8 18-18 0-10-8-18-18-18-4 0-7 1-10 2-5 3-9 9-9 16 0 7 4 12 9 16m94 2c3 0 6-1 9-2 6-3 9-9 9-16 0-7-3-13-9-16-2-1-6-2-9-2-10 0-18 8-18 18 0 10 8 18 18 18m-118 40c-3-2-6-3-10-3-10 0-18 8-18 19 0 10 8 18 18 18 4 0 7-1 10-2 5-3 9-10 9-16 0-7-4-13-9-16m-94-3c-3 0-6 1-9 3-6 3-9 9-9 16 0 10 8 18 18 18 10 0 18-8 18-18 0-11-8-19-18-19m-9-113c2 2 6 3 9 3 10 0 18-8 18-19 0-10-8-18-18-18-3 0-6 1-9 2-6 3-9 10-9 16 0 7 3 13 9 16m-33-107c-11 0-19 8-19 18 0 10 8 18 19 18 3 0 6-1 9-2 5-3 9-9 9-16-1-10-9-18-18-18m169 330c10 0 18-8 18-18 0-10-8-18-18-18-3 0-6 1-9 2-6 3-9 9-9 16 0 10 8 18 18 18m127-207c-3 0-6-1-9-2l-13 21c7 6 11 14 11 23 0 9-4 17-11 23l13 21c3-1 6-2 9-2 17 0 32 14 32 32 0 4-1 8-3 12-1 3-5 5-8 4-3-2-5-6-4-9 1-2 2-4 2-7 0-10-8-18-19-18-3 0-6 1-9 2-5 3-9 10-9 16 0 10 8 19 18 19 3 0 4-1 6-1 4-1 7 1 8 4 1 3-1 7-4 8-3 1-6 1-9 1-17 0-31-13-31-31 0-8 4-17 10-23l-12-21c-3 1-6 2-10 2-15 0-28-11-30-25l-24 0c-3 14-16 25-30 25-4 0-7-1-10-2l-13 21c7 6 11 15 11 23 0 9-4 18-11 23l13 21c3-1 6-1 10-1 16 0 31 14 31 31 0 17-14 31-31 31-18 0-32-14-32-31 0-9 4-17 11-23l-13-21c-3 1-6 1-10 1-14 0-27-10-30-24l-24 0c-3 14-15 24-30 24-17 0-31-13-31-31 0-8 4-17 10-23l-12-21c-3 1-6 2-10 2-11 0-20-5-26-14-2-3-1-7 2-9 3-2 7-1 9 2 3 5 9 8 15 8 3 0 6-1 9-2 6-3 9-9 9-16 0-7-3-13-9-16-2-1-6-2-9-2-9 0-16 6-18 14 0 4-4 6-8 5-3 0-5-4-5-8 3-14 16-25 31-25 3 0 7 1 10 2l12-21c-7-6-10-15-10-23 0-9 4-18 10-23l-12-22c-3 1-6 2-10 2-17 0-31-14-31-31 0-17 14-32 31-32 17 0 31 14 31 32 0 8-4 17-10 23l12 21c3-1 6-2 10-2 17 0 31 14 31 31 0 18-14 32-31 32-3 0-7-1-10-2l-12 21c7 6 10 14 10 23 0 9-4 17-10 23l12 21c3-1 6-2 10-2 15 0 28 11 30 25l24 0c3-14 16-25 30-25 4 0 7 1 10 2l13-21c-7-6-11-14-11-23 0-9 4-17 11-23l-13-21c-3 1-6 2-10 2-14 0-27-11-30-25l-26 0c-4 0-7-3-7-7 0-3 3-6 7-6l26 0c3-14 16-25 30-25 4 0 7 1 10 2l13-21c-7-6-11-15-11-23 0-17 14-32 32-32 14 0 27 11 30 25l24 0c3-14 15-25 30-25 17 0 31 14 31 32 0 8-4 17-10 23l12 21c3-1 6-2 10-2 17 0 31 14 31 31 0 18-14 32-32 32"/>
<glyph glyph-name="ic-escudo" unicode="&#102;" d="M87 267c4 0 6 3 6 6l0 148c23-2 46-2 69 1 26 3 52 10 77 20 24-9 50-16 76-20 23-2 46-3 69-1l0-154c1 0 3 0 4-1 0 0 1 0 1 0 0 0 0 0 1 0 0 0 0 0 1 0 2 0 4-1 6-3l0 166c0 2-1 3-2 4-2 1-3 2-5 2-24-3-49-3-73 0-26 3-52 9-76 20-2 0-3 0-5 0-25-10-50-17-76-20-24-3-49-3-73 0-4 0-7-3-7-6l0-156c0-4 3-6 7-6m178-184c-8-4-17-9-26-12-36 15-67 37-94 65-21 23-39 49-52 78l0 26c0 3-3 6-6 6-4 0-6-3-6-6l0-28c0-1 0-1 0-2 14-31 33-59 56-83 28-30 62-53 100-69 2-1 4-1 5 0 13 5 26 12 39 19-7 1-11 3-16 6m-19 6c-6 0-9 5-9 10-27 13-52 32-73 54-19 19-34 42-46 66l0 175c2 0 4 0 6 0 14 0 28 1 41 3 25 3 50 9 74 18 24-9 48-15 73-18 14-2 27-3 41-3 2 0 4 0 6 0l0-27c0-3 3-6 6-6 4 0 6 3 6 6l0 33c0 2 0 4-2 5-1 1-3 2-4 2-5 0-8 0-12 0-14 0-27 1-40 2-25 3-49 9-73 18-1 1-3 1-4 0-24-9-49-15-74-18-12-1-26-2-39-2-4 0-8 0-12 0-1 0-3-1-5-2-1-1-2-3-2-5l0-183c0-1 0-2 1-2 12-27 29-51 48-71 23-25 51-45 81-59 2-1 2-1 3-1 1 0 2 0 3 1 2 1 4 2 6 3 1 1 1 1 0 1m120 251c-4 0-7-3-7-6l0-59c1 0 1 0 1 0 4 0 7 0 11 1 0 0 1 0 1 0l0 58c0 3-3 6-6 6m27-168l-70-70c-11-11-25-17-40-17-16 0-30 6-41 17-22 22-22 59 0 81l70 70c11 11 25 17 40 17 16 0 30-6 41-17 22-23 22-59 0-81m34 45l-8 0c-1 14-6 28-17 40l6 5c2 2 2 5 0 7-2 2-5 2-7 0l-5-6c-11 10-25 16-40 17l0 7c0 2-2 4-4 4-3 0-5-2-5-4l0-8c-14-1-28-7-39-17l-6 6c-2 2-5 2-7 0-2-2-2-5 0-7l6-6-28-28-6 6c-2 2-4 2-6 0-2-2-2-5 0-7l5-5-28-28-6 5c-2 2-4 2-6 0-2-2-2-4 0-7l5-5c-9-11-15-25-16-40l-8 0c-3 0-5-2-5-4 0-3 2-5 5-5l8 0c1-14 6-28 16-39l-4-5c0 0 1 0 1 0 3 0 5-2 6-5l4 3c11-10 25-15 40-16l0-8c0-3 2-5 4-5 3 0 5 2 5 5l0 8c14 1 28 6 39 16l6-5c1-2 2-2 3-2 1 0 2 0 3 2 2 2 2 4 0 6l-5 6 28 28 6-5c1-1 2-2 3-2 1 0 2 1 3 2 2 2 2 4 0 6l-5 6 28 28 6-5c1-1 2-2 3-2 1 0 3 1 3 2 2 2 2 4 0 6l-6 6c10 11 16 25 17 39l8 0c3 0 5 2 5 5 0 3-2 5-5 5m-109 29c-2-2-2-4 0-6 2-2 5-2 7 0 15 15 40 15 54 0 16-16 16-40 0-55l-69-70c-7-7-17-12-28-12-10 0-20 5-28 12-7 7-11 17-11 27 0 11 4 20 11 28l57 57c2 2 2 4 0 6-2 3-4 3-6 0l-57-56c-9-10-14-21-14-35 0-13 5-25 14-34 10-9 21-14 35-14 12 0 25 5 34 14l70 70c19 19 19 49 0 68-19 19-50 19-69 0"/>
<glyph glyph-name="ic-bacterias" unicode="&#103;" d="M434 224c-11 0-21 4-30 12l-1 1-22 25-37 28c-4 2-16 10-21 14-9 7-28 28-32 33-18 17-19 45-3 63l1 1c17 18 45 19 63 3l1-1c11-11 19-20 23-23 1-1 3-3 5-4l1-1c5-3 10-7 15-11l2-2c6-5 21-15 35-27 15-14 28-29 31-33 18-16 19-44 3-62l-1-1c-8-10-21-15-33-15z m-19 23c12-11 30-10 41 2l1 1c10 12 9 30-2 40l0 1c-3 3-16 18-31 32-12 11-27 22-33 26l-3 2c-5 4-10 8-14 11l-2 2c-2 2-5 3-6 5-6 5-18 17-24 24l-1 0c-12 11-31 10-41-2l-2-1c-10-12-9-30 3-41l1-1c8-9 24-26 31-32 3-3 12-8 19-13l1 0 39-31z m47-3z m-391 74c-13 0-26 7-34 20l0 1c-10 18-3 41 16 52l1 0c1 1 18 8 24 11 1 1 2 2 4 3l1 1c5 3 9 6 14 9l1 1c4 3 17 13 31 20 15 8 31 15 34 16 18 9 41 3 51-15l1-1c10-19 3-42-16-52l-1-1-25-10-33-21c-2-2-11-10-16-13-9-5-32-14-35-16-6-4-12-5-18-5z m-11 59c-11-6-15-20-10-30l1-1c6-11 19-15 30-10l1 1c6 2 27 11 34 15 3 2 11 8 15 12l1 0 34 22 26 11c11 6 15 20 9 31l0 1c-6 10-20 14-31 9l-1-1c-2 0-18-6-33-15-13-7-25-16-30-19l-3-2c-4-2-8-5-12-7l-1-1c-2-2-4-3-6-3-5-4-21-11-24-13z m135 13z m176-291c-12 0-23 6-29 17l-23 36-11 25c-2 4 0 8 3 10 4 2 8 0 11-3l11-25 22-35c5-9 16-12 25-8 4 2 7 6 9 11 1 5 1 9-2 13l-1 2c-5 10-28 58-30 62l-42 72-12 30-13 17c-5 8-16 11-24 7-9-5-12-16-8-24l1-1 6-18 13-19 2-3c2-4 1-8-3-11-4-2-8 0-10 4l-2 3-14 19-6 19c-8 16-2 36 14 44 16 9 36 3 45-12l13-19 12-29 43-72c21-44 28-58 30-63 4-8 5-16 2-25-2-9-8-16-16-20-5-3-10-4-16-4z m-206-43c-13 0-26 5-35 16l-2 1c-18 21-16 52 5 71l1 1 32 23 38 39c2 3 13 18 18 23 9 9 35 27 43 33 21 18 52 17 70-3l1-2c18-20 15-51-5-70l-1-1c-4-3-23-18-30-24-1-1-3-3-5-5l-1-2c-5-5-10-11-15-16l-2-1c-13-15-25-28-36-38-19-17-39-30-42-32-10-9-22-13-34-13z m-25 27c13-14 35-15 49-2l1 0c1 1 21 15 40 32 11 10 23 22 36 37l2 2c5 4 11 10 15 15l1 2c2 2 4 4 6 6 7 7 27 22 31 24l0 1c14 12 16 34 4 48l-1 1c-12 14-34 15-49 2l-1 0c-14-11-34-25-41-32-4-4-14-16-17-21l-1-1-39-41-33-23c-14-14-16-36-3-50z m69 117c0 0-1 0-2 1l-21 6-23 4-19 9c-17 6-26 24-21 42 6 17 24 27 41 22l22-3 30-13 39-10c4-1 7-5 6-9-1-4-6-7-10-6l-40 11-29 12-21 3c-9 3-20-2-22-11-3-10 2-20 12-23l1-1 16-8 23-3 22-7c4-1 6-6 5-10-2-4-5-6-9-6z m167-27c-1 0-2 0-3 0-4 2-6 6-4 10 1 1 1 2 1 2 3 10-2 20-12 23-4 1-6 6-5 10 1 4 6 6 10 5 17-5 27-24 22-42 0-1-1-2-2-4-2-3-4-4-7-4z"/>
<glyph glyph-name="ic-solu" unicode="&#104;" d="M454 154l-15 0 0 187-87 0 0 15 91 0c0 0 1 1 1 1l-91 0 0 16 107 0 0-16c0-5-2-9-6-12z m-312-15c-81 0-84 9-84 15l0 191c-4 3-6 8-6 12l0 16 107 0 0-16-91 0c0 0 1-1 1-1l91 0 0-15-87 0 0-182c8-2 33-4 69-4 6 0 13 0 19 0l0-16c-6 0-12 0-19 0z m114-25c-97 0-102 10-102 16l0 237c-4 4-7 9-7 14l0 18 219 0 0-18c0-5-3-10-7-14l0-237c-1-6-6-16-103-16z m-87 21c10-2 41-6 87-6 46 0 77 3 87 6l0 227-174 0z m-7 248l0-2c0-2 2-4 4-4l181 0c2 0 4 2 4 4l0 2z m208-244c-7 0-14 0-20 1l0 15c6 0 13 0 20 0 42 0 67 3 71 5-1 0-2-2-2-5l15 0c0-7 0-16-84-16z"/>
<glyph glyph-name="ic-lapiz" unicode="&#105;" d="M121 115c-2 0-3 0-5 2-1 1-2 4-2 6l25 93c0 1 0 1 0 2 1 1 1 1 1 2l177 175c3 3 8 3 10 0l68-67c1-2 2-3 2-5 0-2-1-4-2-6l-176-176c-1-1-2-1-3-2l-93-24c0 0-1 0-2 0z m29 86l-18-69 69 18z m6 14l59-59 166 167-24 24-92-92c-3-3-7-3-10 0-3 3-3 7 0 10l92 91-24 24z"/>
<glyph glyph-name="ic-info-1" unicode="&#106;" d="M256 110c-81 0-146 65-146 146 0 81 65 146 146 146 81 0 146-65 146-146 0-80-66-146-146-146z m0 270c-69 0-124-55-124-124 0-69 55-124 124-124 69 0 124 55 124 124 0 68-56 124-124 124z m14-67c0-8-6-14-14-14-8 0-14 6-14 14 0 8 6 14 14 14 8 0 14-6 14-14z m-14-30c-3 1-7-1-9-3-3-3-4-6-3-10l0-72c0-7 5-13 12-13 7 0 12 6 12 13l0 72c1 4 0 7-3 10-2 2-6 4-9 3z"/>
<glyph glyph-name="ic-popup" unicode="&#107;" d="M395 129l-278 0c-5 0-9 1-12 4-3 3-5 8-4 12l0 209 17 0 0-207 276 0 0 218-293 0 0 18 294 0c5 0 9-1 12-4 3-3 5-8 4-12l0-222c1-4-1-9-4-12-3-3-7-4-12-4z m-32 79l-214 0 0 17 214 0z m0 39l-214 0 0 18 214 0z m0 40l-214 0 0 17 214 0z"/>
<glyph glyph-name="ic-casa" unicode="&#108;" d="M351 234l-9 0 0-86c0-10-10-10-10-10l-155 0c-11 0-11 10-11 10l0 76c0 10-8 10-8 10l-9 0 0-104c0-10 10-10 10-10l190 0c10 0 10 10 10 10l0 94c0 10-8 10-8 10z m-90 155c-7 7-14 0-14 0l-124-132c-7-8 0-14 0-14l6-6 118 126c7 8 14 0 14 0l111-119c7-7 14-1 14-1l6 6z"/>
</font></defs></svg>
