<?xml version="1.0" encoding="utf-8"?>
<!-- Generator: Adobe Illustrator 21.0.2, SVG Export Plug-In . SVG Version: 6.00 Build 0)  -->
<svg version="1.1" id="Capa_1" xmlns="http://www.w3.org/2000/svg" xmlns:xlink="http://www.w3.org/1999/xlink" x="0px" y="0px"
	 viewBox="0 0 100 100" style="enable-background:new 0 0 100 100;" xml:space="preserve">
<style type="text/css">
	.st0{fill:#004D9B;}
	.st1{fill:#B0BAC2;}
</style>
<g>
	<path class="st0" d="M23.7,77.6c-0.4,0-0.7-0.1-1-0.4c-0.3-0.3-0.5-0.8-0.4-1.3l4.8-18.1c0-0.1,0.1-0.2,0.1-0.4
		c0.1-0.1,0.1-0.2,0.2-0.3L62,22.8c0.5-0.5,1.4-0.5,1.9,0l6.6,6.6c0,0,0,0,0,0c0,0,0,0,0,0l6.6,6.6c0.3,0.3,0.4,0.6,0.4,1
		s-0.1,0.7-0.4,1L42.8,72.4c-0.2,0.2-0.4,0.3-0.6,0.4l-18.1,4.8C24,77.6,23.9,77.6,23.7,77.6z M29.3,60.8l-3.6,13.5l13.5-3.6
		L29.3,60.8z M30.5,58.1l11.4,11.4l32.5-32.5l-4.7-4.7L51.7,50.2c-0.5,0.5-1.4,0.5-1.9,0c-0.5-0.5-0.5-1.4,0-1.9l17.9-17.9l-4.7-4.7
		L30.5,58.1z"/>
</g>
</svg>
