<?xml version="1.0" encoding="utf-8"?>
<!-- Generator: Adobe Illustrator 21.0.2, SVG Export Plug-In . SVG Version: 6.00 Build 0)  -->
<svg version="1.1" id="Capa_1" xmlns="http://www.w3.org/2000/svg" xmlns:xlink="http://www.w3.org/1999/xlink" x="0px" y="0px"
	 viewBox="0 0 100 100" style="enable-background:new 0 0 100 100;" xml:space="preserve">
<style type="text/css">
	.st0{fill:#004D9B;}
	.st1{fill:#B0BAC2;}
</style>
<g>
	<path class="st0" d="M79,67.9c-0.6,0-1.2-0.2-1.8-0.5c0,0,0,0,0,0c-1.1-0.6-1.8-1.8-1.8-3.1c0-1.3,0.7-2.5,1.8-3.1
		c0.5-0.3,1.2-0.5,1.8-0.5c2,0,3.6,1.6,3.6,3.6C82.6,66.3,81,67.9,79,67.9 M75,68.9L72.6,73c-0.6-0.2-1.2-0.3-1.9-0.3
		c-2.9,0-5.4,2.1-5.9,4.8h-4.7c-0.6-2.7-3-4.8-5.9-4.8c-0.6,0-1.3,0.1-1.9,0.3l-2.4-4.1c1.3-1.1,2-2.8,2-4.5c0-1.7-0.8-3.4-2-4.5
		l2.4-4.1c0.6,0.2,1.2,0.3,1.9,0.3c2.9,0,5.4-2.1,5.9-4.8h4.7c0.6,2.7,3,4.8,5.9,4.8c0.6,0,1.3-0.1,1.9-0.3l2.4,4.1
		c-1.3,1.1-2,2.8-2,4.5C73,66.1,73.7,67.7,75,68.9 M70.7,82.3c-2,0-3.6-1.6-3.6-3.6s1.6-3.6,3.6-3.6c0.6,0,1.2,0.2,1.8,0.5
		c1.1,0.6,1.8,1.8,1.8,3.1C74.3,80.7,72.7,82.3,70.7,82.3 M54.1,82.3c-2,0-3.6-1.6-3.6-3.6c0-1.3,0.7-2.5,1.8-3.1
		c0.5-0.3,1.2-0.5,1.8-0.5c2,0,3.6,1.6,3.6,3.6S56.1,82.3,54.1,82.3 M47.6,67.5L47.6,67.5c-0.5,0.3-1.2,0.5-1.8,0.5
		c-2,0-3.6-1.6-3.6-3.6c0-2,1.6-3.6,3.6-3.6c0.6,0,1.2,0.2,1.8,0.5c1.1,0.6,1.8,1.8,1.8,3.1C49.4,65.6,48.7,66.8,47.6,67.5
		 M52.4,46.9c0.5-0.3,1.1-0.5,1.8-0.5c2,0,3.6,1.6,3.6,3.6s-1.6,3.6-3.6,3.6c-0.6,0-1.2-0.2-1.8-0.5c-1.1-0.6-1.8-1.8-1.8-3.1
		C50.6,48.7,51.3,47.6,52.4,46.9 M70.7,46.4c0.6,0,1.2,0.2,1.8,0.5c1.1,0.6,1.8,1.8,1.8,3.1c0,1.3-0.7,2.5-1.8,3.1c0,0,0,0,0,0
		c-0.5,0.3-1.2,0.5-1.8,0.5c-2,0-3.6-1.6-3.6-3.6S68.8,46.4,70.7,46.4 M47.6,38.7C47.6,38.7,47.6,38.7,47.6,38.7
		c-0.5,0.3-1.2,0.5-1.8,0.5c-2,0-3.6-1.6-3.6-3.6s1.6-3.6,3.6-3.6c0.6,0,1.2,0.2,1.8,0.5c1.1,0.6,1.8,1.8,1.8,3.1
		C49.4,36.9,48.7,38.1,47.6,38.7 M29.3,39.2c-0.6,0-1.2-0.2-1.8-0.5c-1.1-0.6-1.8-1.8-1.8-3.1c0-2,1.6-3.6,3.6-3.6
		c2,0,3.6,1.6,3.6,3.6S31.2,39.2,29.3,39.2 M27.5,61.3c0.5-0.3,1.2-0.5,1.8-0.5c2,0,3.6,1.6,3.6,3.6c0,2-1.6,3.6-3.6,3.6
		c-0.6,0-1.2-0.2-1.8-0.5c-1.1-0.6-1.8-1.8-1.8-3.1C25.7,63.1,26.4,61.9,27.5,61.3 M21,82.3c-2,0-3.6-1.6-3.6-3.6s1.6-3.6,3.6-3.6
		c0.6,0,1.2,0.2,1.8,0.5c1.1,0.6,1.8,1.8,1.8,3.1C24.5,80.7,22.9,82.3,21,82.3 M54.1,17.7c2,0,3.6,1.6,3.6,3.6s-1.6,3.6-3.6,3.6
		c-0.6,0-1.2-0.2-1.8-0.5c-1.1-0.6-1.8-1.8-1.8-3.1C50.6,19.3,52.2,17.7,54.1,17.7 M79,58.3c-0.6,0-1.3,0.1-1.9,0.3l-2.4-4.1
		c1.3-1.1,2-2.8,2-4.5c0-1.7-0.8-3.4-2-4.5l2.4-4.1c0.6,0.2,1.2,0.3,1.9,0.3c3.3,0,6.1-2.7,6.1-6.1c0-0.8-0.2-1.6-0.5-2.4
		c-0.3-0.6-1-0.9-1.6-0.7c-0.6,0.3-0.9,1-0.7,1.6c0.2,0.4,0.3,0.9,0.3,1.4c0,2-1.6,3.6-3.6,3.6c-0.6,0-1.2-0.2-1.8-0.5
		c-1.1-0.6-1.8-1.8-1.8-3.1c0-2,1.6-3.6,3.6-3.6c0.4,0,0.7,0.1,1.1,0.2c0.7,0.2,1.4-0.2,1.6-0.8c0.2-0.7-0.2-1.4-0.8-1.6
		c-0.6-0.2-1.2-0.3-1.8-0.3c-3.3,0-6.1,2.7-6.1,6.1c0,1.7,0.8,3.4,2,4.5l-2.4,4.1c-0.6-0.2-1.2-0.3-1.9-0.3c-2.9,0-5.4,2.1-5.9,4.8
		h-4.7c-0.6-2.7-3-4.8-5.9-4.8c-0.6,0-1.3,0.1-1.9,0.3l-2.4-4.1c1.3-1.1,2-2.8,2-4.5c0-1.7-0.8-3.4-2-4.5l2.4-4.1
		c0.6,0.2,1.2,0.3,1.9,0.3c3.3,0,6.1-2.7,6.1-6.1c0-3.3-2.7-6.1-6.1-6.1c-3.4,0-6.1,2.7-6.1,6.1c0,1.7,0.8,3.4,2,4.5l-2.4,4.1
		c-0.6-0.2-1.2-0.3-1.9-0.3c-2.9,0-5.4,2.1-5.9,4.8h-4.7c-0.6-2.7-3-4.8-5.9-4.8c-3.3,0-6.1,2.7-6.1,6.1c0,1.7,0.8,3.4,2,4.5
		l-2.4,4.1c-0.6-0.2-1.2-0.3-1.9-0.3c-2.1,0-4,1-5.1,2.7c-0.4,0.6-0.2,1.4,0.4,1.7c0.6,0.4,1.4,0.2,1.7-0.4c0.7-1,1.8-1.6,3-1.6
		c0.6,0,1.2,0.2,1.8,0.5c1.1,0.6,1.8,1.8,1.8,3.1c0,1.3-0.7,2.5-1.8,3.1c-0.5,0.3-1.2,0.5-1.8,0.5c-1.7,0-3.2-1.2-3.5-2.8
		c-0.1-0.7-0.8-1.1-1.5-1c-0.7,0.1-1.1,0.8-1,1.5c0.6,2.8,3.1,4.9,6,4.9c0.6,0,1.3-0.1,1.9-0.3l2.4,4.1c-1.3,1.1-2,2.8-2,4.5
		c0,1.7,0.8,3.4,2,4.5L22.8,73c-0.6-0.2-1.2-0.3-1.9-0.3c-3.4,0-6.1,2.7-6.1,6.1c0,3.3,2.7,6.1,6.1,6.1c3.3,0,6.1-2.7,6.1-6.1
		c0-1.7-0.8-3.4-2-4.5l2.4-4.1c0.6,0.2,1.2,0.3,1.9,0.3c3.3,0,6.1-2.7,6.1-6.1c0-3.4-2.7-6.1-6.1-6.1c-0.6,0-1.3,0.1-1.9,0.3
		L25,54.5c1.3-1.1,2-2.8,2-4.5s-0.8-3.4-2-4.5l2.4-4.1c0.6,0.2,1.2,0.3,1.9,0.3c2.9,0,5.4-2.1,5.9-4.8h4.7c0.6,2.7,3,4.8,5.9,4.8
		c0.6,0,1.3-0.1,1.9-0.3l2.4,4.1c-1.3,1.1-2,2.8-2,4.5c0,1.7,0.8,3.4,2,4.5l-2.4,4.1c-0.6-0.2-1.2-0.3-1.9-0.3
		c-2.9,0-5.4,2.1-5.9,4.8h-5.2c-0.7,0-1.3,0.6-1.3,1.3c0,0.7,0.6,1.3,1.3,1.3h5.2c0.6,2.7,3,4.8,5.9,4.8c0.6,0,1.3-0.1,1.9-0.3
		l2.4,4.1c-1.3,1.1-2,2.8-2,4.5c0,3.3,2.7,6.1,6.1,6.1c2.9,0,5.4-2.1,5.9-4.8h4.7c0.6,2.7,3,4.8,5.9,4.8c3.3,0,6.1-2.7,6.1-6.1
		c0-1.7-0.8-3.4-2-4.5l2.4-4.1c0.6,0.2,1.2,0.3,1.9,0.3c3.3,0,6.1-2.7,6.1-6.1C85.1,61,82.4,58.3,79,58.3"/>
</g>
</svg>
