<?xml version="1.0" encoding="utf-8"?>
<!-- Generator: Adobe Illustrator 21.0.2, SVG Export Plug-In . SVG Version: 6.00 Build 0)  -->
<svg version="1.1" id="Capa_1" xmlns="http://www.w3.org/2000/svg" xmlns:xlink="http://www.w3.org/1999/xlink" x="0px" y="0px"
	 viewBox="0 0 100 100" style="enable-background:new 0 0 100 100;" xml:space="preserve">
<style type="text/css">
	.st0{fill:#004D9B;}
	.st1{fill:#B0BAC2;}
</style>
<g>
	<path class="st0" d="M84.8,56.2c-2.1,0-4.2-0.7-5.8-2.2l-0.2-0.2l-4.4-4.9l-7.2-5.5c-0.7-0.4-3.2-1.9-4.1-2.7
		c-1.7-1.4-5.4-5.6-6.3-6.6c-3.4-3.2-3.7-8.7-0.5-12.2l0.2-0.3c3.2-3.5,8.7-3.7,12.2-0.5l0.2,0.2c2.1,2.2,3.8,3.9,4.5,4.5
		c0.3,0.2,0.7,0.5,1.1,0.8l0.1,0.1c1,0.7,2,1.5,2.9,2.3l0.4,0.3c1.2,0.9,4.2,2.9,6.8,5.3c3,2.7,5.6,5.7,6.2,6.4
		c3.4,3.2,3.6,8.6,0.5,12.1l-0.1,0.2C89.6,55.3,87.2,56.2,84.8,56.2z M81,51.8c2.4,2.1,6,1.9,8.1-0.4l0.2-0.2c2-2.3,1.8-5.8-0.4-7.9
		l-0.1-0.1c-0.5-0.6-3-3.6-5.9-6.2c-2.5-2.3-5.3-4.3-6.5-5.1l-0.7-0.5c-0.8-0.7-1.8-1.5-2.7-2.1L72.7,29c-0.5-0.4-1-0.7-1.3-1
		c-1.1-1-3.4-3.3-4.7-4.7l-0.1-0.1c-2.4-2.1-6-1.9-8.1,0.4l-0.2,0.2c-2.1,2.3-1.9,5.9,0.4,8L59,32c1.6,1.8,4.7,5.2,6,6.3
		c0.6,0.5,2.4,1.6,3.8,2.5l0.1,0.1l7.6,5.9L81,51.8z M90.2,52.3L90.2,52.3L90.2,52.3z"/>
	<path class="st0" d="M13.9,37.9c-2.6,0-5.2-1.4-6.6-3.9l-0.1-0.3c-1.9-3.5-0.5-8,3.1-10l0.3-0.1c0.2-0.1,3.5-1.6,4.6-2.2
		c0.2-0.1,0.5-0.3,0.8-0.5l0.3-0.2c0.8-0.5,1.7-1.2,2.6-1.7l0.2-0.2c0.8-0.6,3.4-2.5,6.1-4c3-1.6,6.1-2.8,6.7-3.1
		c3.5-1.8,7.9-0.5,9.9,3l0.1,0.2c2,3.6,0.6,8.2-3,10.1l-0.2,0.1l-5,2.1l-6.3,4.1c-0.4,0.3-2.3,1.9-3.2,2.5c-1.7,1-6.2,2.8-6.9,3.1
		C16.2,37.6,15,37.9,13.9,37.9z M11.7,26.3L11.7,26.3c-2.2,1.2-3,3.9-1.9,6l0.1,0.2c1.2,2.1,3.8,2.9,6,1.8l0.2-0.1
		c1-0.4,5.2-2.1,6.5-2.9c0.6-0.4,2.2-1.7,2.9-2.3l0.2-0.1l6.7-4.3l5.1-2.1c2.2-1.2,2.9-3.9,1.8-6.1l-0.1-0.1c-1.2-2.1-3.8-2.9-6-1.8
		L33,14.6c-0.3,0.1-3.5,1.3-6.4,2.9c-2.6,1.4-5,3.2-5.9,3.8l-0.5,0.3c-0.8,0.4-1.6,1-2.4,1.5l-0.3,0.2c-0.4,0.3-0.7,0.5-1,0.6
		C15.5,24.7,12.4,26,11.7,26.3z M38.1,23.9L38.1,23.9L38.1,23.9z"/>
	<path class="st0" d="M72.5,80.7c-2.3,0-4.5-1.2-5.7-3.4l-4.4-6.9l-2.3-5c-0.3-0.8,0-1.6,0.7-2c0.8-0.3,1.6,0,2,0.7l2.3,4.9l4.3,6.8
		c1,1.8,3.1,2.4,4.8,1.5c0.8-0.4,1.4-1.2,1.7-2.1c0.3-0.9,0.2-1.8-0.3-2.6l-0.2-0.4c-0.9-1.8-5.4-11.2-5.8-12L61.3,46l-2.4-5.7
		L56.4,37c-0.9-1.7-3-2.3-4.7-1.4c-1.7,0.9-2.3,3-1.5,4.7l0.1,0.2l1.2,3.5l2.6,3.6l0.4,0.7c0.4,0.7,0.1,1.6-0.6,2
		c-0.7,0.4-1.6,0.1-2-0.6l-0.3-0.6l-2.7-3.7l-1.3-3.8c-1.5-3.1-0.3-7,2.8-8.6c3.1-1.7,7-0.6,8.7,2.4l2.6,3.6l2.4,5.7l8.3,14.1
		c4.1,8.5,5.5,11.3,5.9,12.3l0,0c0.8,1.5,1,3.2,0.5,4.9c-0.5,1.7-1.6,3.1-3.2,3.9C74.6,80.4,73.6,80.7,72.5,80.7z"/>
	<path class="st0" d="M32.3,89c-2.6,0-5.2-1-7-3.1L25,85.7c-3.5-4-3.1-10.2,1-13.8l0.2-0.2l6.2-4.5l7.4-7.7c0.4-0.6,2.6-3.4,3.6-4.4
		c1.8-1.7,6.8-5.3,8.4-6.5c4.1-3.5,10.2-3.2,13.6,0.7l0.3,0.3c3.4,3.9,2.9,10-1.1,13.7l-0.2,0.2c-0.7,0.5-4.5,3.4-5.8,4.7
		c-0.2,0.2-0.6,0.6-0.9,1l-0.3,0.3c-0.9,1-2,2.2-3,3.1l-0.3,0.3c-2.5,2.9-4.9,5.4-7.1,7.3c-3.6,3.3-7.5,5.9-8.2,6.4
		C36.9,88.2,34.6,89,32.3,89z M27.4,83.8L27.4,83.8c2.4,2.7,6.7,2.9,9.5,0.4l0.2-0.1c0.2-0.1,4.2-2.8,7.9-6.2
		c2.1-1.9,4.4-4.3,6.9-7.1l0.5-0.5c0.9-0.8,2-1.9,2.8-2.9l0.3-0.4c0.4-0.4,0.8-0.8,1.1-1.1c1.5-1.4,5.4-4.4,6-4.8l0.1-0.1
		c2.8-2.5,3.2-6.8,0.8-9.5l-0.2-0.2c-2.4-2.7-6.6-2.9-9.5-0.4L53.6,51c-2.9,2.1-6.8,4.9-8.1,6.2c-0.8,0.8-2.7,3.2-3.4,4.1L42,61.5
		l-7.7,8L28,74.1c-2.8,2.6-3.2,6.9-0.7,9.6L27.4,83.8z"/>
	<path class="st0" d="M40.9,60.9c-0.1,0-0.3,0-0.4-0.1l-4.2-1.3l-4.5-0.7l-3.6-1.8c-3.3-1.1-5.1-4.7-4.1-8.1c1-3.3,4.6-5.3,7.9-4.4
		l4.4,0.7l5.8,2.4l7.6,2c0.8,0.2,1.3,1,1.1,1.8c-0.2,0.8-1,1.3-1.8,1.1l-7.9-2.1l-5.7-2.4l-4.1-0.6c-1.8-0.5-3.8,0.5-4.3,2.3
		c-0.6,1.8,0.5,3.8,2.3,4.4l0.2,0.1l3.3,1.6l4.4,0.7l4.3,1.3c0.8,0.2,1.2,1.1,1,1.9C42.1,60.5,41.6,60.9,40.9,60.9z"/>
	<path class="st0" d="M73.4,66.3c-0.2,0-0.4,0-0.6-0.1c-0.8-0.3-1.1-1.2-0.7-2c0.1-0.1,0.1-0.3,0.2-0.4c0.6-1.9-0.5-3.8-2.3-4.4
		c-0.8-0.2-1.2-1.1-1-1.9c0.2-0.8,1.1-1.2,1.9-1c3.4,1,5.3,4.7,4.3,8.1c-0.1,0.3-0.2,0.5-0.3,0.8C74.5,66,74,66.3,73.4,66.3z"/>
</g>
</svg>
